{
    "AIActionType": {
        "0": "None",
        "1": "Follow",
        "2": "Homing"
    },
    "AIFlags": {
        "1": "Positioning",
        "2": "Sneaking",
        "4": "DisableMove",
        "8": "DisableAction",
        "16": "DisableSkill",
        "32": "DisableAvoid",
        "64": "CastSkillFriendlyFire",
        "128": "DisableJewelAttack",
        "256": "SelfBuffOnly",
        "512": "DisableTargetPriority",
        "1024": "UseOldSort"
    },
    "ActivateFlags": {
        "1": "AutoActivate",
        "2": "AutoDeactivate"
    },
    "ActorChildOrder": {
        "0": "Over",
        "1": "Under"
    },
    "AddType": {
        "0": "Unknow",
        "1": "JobOverwrite",
        "2": "MasterAdd",
        "3": "MasterOverwrite"
    },
    "Alignment": {
        "0": "BottomLeft",
        "1": "Bottom",
        "2": "BottomRight",
        "4": "MiddleLeft",
        "5": "Middle",
        "6": "MiddleRight",
        "8": "TopLeft",
        "9": "Top",
        "10": "TopRight"
    },
    "Anchors": {
        "0": "None",
        "1": "TopLeft",
        "2": "TopCenter",
        "3": "TopRight",
        "4": "MiddleLeft",
        "5": "Center",
        "6": "MiddleRight",
        "7": "BottomLeft",
        "8": "BottomCenter",
        "9": "BottomRight"
    },
    "AnimState": {
        "0": "IDEL",
        "1": "OPEN",
        "2": "CLOSE",
        "3": "OPENED",
        "4": "CLOSED"
    },
    "AnimationTypes": {
        "0": "Custom",
        "1": "Idle"
    },
    "AnimeType": {
        "0": "Custom",
        "1": "Idel"
    },
    "ArchiveItemTypes": {
        "0": "Item",
        "1": "Artifact",
        "2": "ConceptCard"
    },
    "ArchiveTypes": {
        "0": "Encounter",
        "1": "Season",
        "2": "Artifact"
    },
    "ArrowStates": {
        "0": "Normal",
        "1": "Press",
        "2": "Hilit",
        "3": "Close"
    },
    "ArtifactTypes": {
        "0": "None",
        "1": "Arms",
        "2": "Armor",
        "3": "Accessory"
    },
    "AttackDetailTypes": {
        "0": "None",
        "1": "Slash",
        "2": "Stab",
        "3": "Blow",
        "4": "Shot",
        "5": "Magic",
        "6": "Jump",
        "7": "MAX"
    },
    "AttackTypes": {
        "0": "None",
        "1": "PhyAttack",
        "2": "MagAttack"
    },
    "AuraStopTimings": {
        "0": "AfterChant",
        "1": "BeforeHit",
        "2": "AfterHit"
    },
    "AutoApproval": {
        "0": "None",
        "1": "On",
        "2": "Off",
        "3": "__MAX"
    },
    "AwardGrade": {
        "0": "None",
        "1": "Grade1",
        "2": "Grade2",
        "3": "Grade3",
        "4": "Grade4",
        "5": "Grade5",
        "6": "GradeEx"
    },
    "Axis": {
        "0": "Horizontal",
        "1": "Vertical"
    },
    "BadgeTypes": {
        "-1": "All",
        "1": "Unit",
        "2": "UnitUnlock",
        "4": "GoldGacha",
        "8": "RareGacha",
        "16": "DailyMission",
        "32": "Arena",
        "64": "Multiplay",
        "128": "Friend",
        "256": "GiftBox",
        "512": "ItemEquipment"
    },
    "BannerType": {
        "0": "storyQuest",
        "1": "eventQuest",
        "2": "multiQuest",
        "3": "gacha",
        "4": "shop",
        "5": "url",
        "6": "towerQuest",
        "7": "arena",
        "8": "pvp",
        "9": "ordealQuest",
        "10": "beginner",
        "11": "unknown"
    },
    "BattleBonus": {
        "0": "EffectRange",
        "1": "EffectScope",
        "2": "EffectHeight",
        "3": "HitRate",
        "4": "AvoidRate",
        "5": "CriticalRate",
        "6": "SlashAttack",
        "7": "PierceAttack",
        "8": "BlowAttack",
        "9": "ShotAttack",
        "10": "MagicAttack",
        "11": "ReactionAttack",
        "12": "JumpAttack",
        "13": "GainJewel",
        "14": "UsedJewelRate",
        "15": "ActionCount",
        "16": "GutsRate",
        "17": "AutoJewel",
        "18": "ChargeTimeRate",
        "19": "CastTimeRate",
        "20": "BuffTurn",
        "21": "DebuffTurn",
        "22": "CombinationRange",
        "23": "HpCostRate",
        "24": "SkillUseCount",
        "25": "PoisonDamage",
        "26": "PoisonTurn",
        "27": "Resist_Slash",
        "28": "Resist_Pierce",
        "29": "Resist_Blow",
        "30": "Resist_Shot",
        "31": "Resist_Magic",
        "32": "Resist_Reaction",
        "33": "Resist_Jump",
        "34": "Avoid_Slash",
        "35": "Avoid_Pierce",
        "36": "Avoid_Blow",
        "37": "Avoid_Shot",
        "38": "Avoid_Magic",
        "39": "Avoid_Reaction",
        "40": "Avoid_Jump",
        "41": "GainJewelRate",
        "42": "UsedJewel",
        "43": "UnitDefenseFire",
        "44": "UnitDefenseWater",
        "45": "UnitDefenseWind",
        "46": "UnitDefenseThunder",
        "47": "UnitDefenseShine",
        "48": "UnitDefenseDark",
        "49": "CriticalDamageRate",
        "50": "NoDivAttack",
        "51": "Resist_NoDiv",
        "52": "Avoid_NoDiv",
        "53": "Resist_BuffHpMax",
        "54": "Resist_BuffAtk",
        "55": "Resist_BuffDef",
        "56": "Resist_BuffMag",
        "57": "Resist_BuffMnd",
        "58": "Resist_BuffRec",
        "59": "Resist_BuffDex",
        "60": "Resist_BuffSpd",
        "61": "Resist_BuffCri",
        "62": "Resist_BuffLuk",
        "63": "Resist_BuffMov",
        "64": "Resist_BuffJmp",
        "65": "Resist_DebuffHpMax",
        "66": "Resist_DebuffAtk",
        "67": "Resist_DebuffDef",
        "68": "Resist_DebuffMag",
        "69": "Resist_DebuffMnd",
        "70": "Resist_DebuffRec",
        "71": "Resist_DebuffDex",
        "72": "Resist_DebuffSpd",
        "73": "Resist_DebuffCri",
        "74": "Resist_DebuffLuk",
        "75": "Resist_DebuffMov",
        "76": "Resist_DebuffJmp"
    },
    "BoxGachaCostType": {
        "0": "None",
        "1": "Gold",
        "2": "Coin",
        "3": "Item"
    },
    "BtlEndTypes": {
        "0": "com",
        "1": "multi",
        "2": "colo",
        "3": "ordeal"
    },
    "BtlResultTypes": {
        "0": "Win",
        "1": "Lose",
        "2": "Retire",
        "3": "Cancel",
        "4": "Draw"
    },
    "BuffFlags": {
        "1": "UpReplenish",
        "2": "NoDisabled",
        "4": "NoBuffTurn"
    },
    "BuffMethodTypes": {
        "0": "Add",
        "1": "Highest",
        "2": "Lowest"
    },
    "BuffType": {
        "0": "NONE",
        "1": "ATK",
        "2": "DEF",
        "3": "MAG",
        "4": "MND",
        "5": "MAX"
    },
    "BuffTypes": {
        "0": "Buff",
        "1": "Debuff"
    },
    "ButtonTypes": {
        "1": "Move",
        "2": "Action",
        "4": "GridEvent",
        "8": "Misc",
        "16": "Attack",
        "32": "Skill",
        "64": "Item",
        "128": "IsRenkei",
        "256": "Map"
    },
    "CHEAT_TYPE": {
        "0": "MOVE",
        "1": "MP",
        "2": "RANGE"
    },
    "CalcType": {
        "0": "SCALE",
        "1": "FIXED",
        "2": "MAX"
    },
    "CameraFadeModes": {
        "0": "KeepAsIs",
        "1": "FadeIn",
        "2": "FadeOut",
        "3": "FadeInOut"
    },
    "CameraMode": {
        "0": "DEFAULT",
        "1": "UPVIEW"
    },
    "CameraMoveModes": {
        "0": "InterpolateToPoint",
        "1": "StartEnd",
        "2": "SpecificActor"
    },
    "CameraMoveSpeeds": {
        "0": "Immediate",
        "1": "Normal",
        "2": "Fast",
        "3": "Slow"
    },
    "Category": {
        "0": "Unlock",
        "1": "Envy",
        "2": "Wrath",
        "3": "Sloth",
        "4": "Lust",
        "5": "Gluttony",
        "6": "Greed",
        "7": "Pride",
        "8": "MAX"
    },
    "CoinListSelectionType": {
        "0": "None",
        "1": "EventShop",
        "2": "ArenaShop",
        "3": "MultiShop"
    },
    "CoinType": {
        "0": "New",
        "1": "Old"
    },
    "ColoResetTypes": {
        "0": "cooldown",
        "1": "colocost"
    },
    "ColorMasks": {
        "1": "R",
        "2": "G",
        "4": "B",
        "8": "A"
    },
    "ColorModes": {
        "0": "None",
        "1": "Monochrome",
        "2": "Blend"
    },
    "CommandTypes": {
        "0": "None",
        "1": "Move",
        "2": "Attack",
        "3": "Ability",
        "4": "Item",
        "5": "Gimmick",
        "6": "Map",
        "7": "End"
    },
    "CompType": {
        "0": "EQUAL",
        "1": "NOT_EQUAL",
        "2": "GREATER",
        "3": "GREATER_EQUAL",
        "4": "LESS",
        "5": "LESS_EQUAL",
        "6": "MAX"
    },
    "CompareTarget": {
        "0": "Text",
        "1": "Number",
        "2": "Time"
    },
    "ConditionEffectTypes": {
        "0": "None",
        "1": "CureCondition",
        "2": "FailCondition",
        "3": "ForcedFailCondition",
        "4": "RandomFailCondition",
        "5": "DisableCondition"
    },
    "ConditionType": {
        "0": "None",
        "1": "Unit",
        "2": "Quest"
    },
    "Conditions": {
        "0": "QUEST_HASENOUGHSTAMINA",
        "1": "FRIEND_ISFRIEND",
        "2": "PARTY_LEADERSKILLAVAIL",
        "3": "FRIEND_LEADERSKILLAVAIL",
        "4": "PARTY_LEADEREXIST",
        "5": "TARGET_COMMANDVALID",
        "6": "QUEST_DROPSKAKERA",
        "7": "QUEST_FIRSTTURN",
        "8": "QUEST_NEEDFRIENDREQUEST",
        "9": "PLAYER_LEVELCHANGED",
        "10": "NEWGAME",
        "11": "BTLIDSET",
        "12": "QUEST_ISMULTIPLAY",
        "13": "QUEST_ISARENA",
        "14": "ARENA_RANKUP",
        "15": "QUEST_HASREWARD",
        "16": "TERMSOFUSE_AGREED",
        "17": "FRIEND_VALID",
        "18": "QUEST_ENDSILENT",
        "19": "IS_NOT_ENOUGH_SUPPORT_COST",
        "20": "MULTI_PLAY_IS_UNLOCKED",
        "21": "QUEST_IS_ENABLE_AUTOBATTLE",
        "22": "QUEST_IS_AUTOBATTLE",
        "23": "DEBUGBUILD",
        "24": "IS_BEGINNER",
        "25": "IS_END_TUTORIAL",
        "26": "IS_GET_UNIT",
        "27": "VERSUS_UNLOCK",
        "28": "QUEST_IS_SHOW_REVIEW",
        "29": "QUEST_IS_FIRST_CLEAR",
        "30": "QUEST_IS_GPS",
        "31": "QUEST_IS_GPSCHAPTER_HEAD",
        "32": "QUEST_IS_GPSCHAPTER_QUEST",
        "33": "QUEST_IS_GPSCHAPTER_QUEST_VALID",
        "34": "VALID_GPSGIFT",
        "35": "SCENE_CHANGING",
        "36": "QUEST_IS_PLAY_LAST_DEMO",
        "37": "QUEST_IS_RANKINGQUEST",
        "38": "QUEST_IS_RANKINGQUEST_NEWSCORE",
        "39": "QUEST_IS_RANKINGQUEST_JOIN_REWARD",
        "40": "QUEST_IS_RANKINGQUEST_RESULT_VALIDRANK",
        "41": "DIFFERENT_VERSION",
        "42": "SELECTQUEST_IS_MULTIGPS",
        "43": "LINEQUEST_IS_MULTIGPS",
        "44": "GPSQUEST_IS_VALID",
        "45": "MULTI_GPSQUEST_IS_VALID",
        "46": "QUEST_IS_ORDEAL",
        "47": "QUEST_IS_GET_UNIT",
        "48": "VALID_FIRST_CHARGE_CAMPAIGN",
        "49": "GUERRILLASHOP_IS_STARTED",
        "50": "QUEST_END_CARD_IS_SENDMAIL",
        "51": "TOWER_QUEST_HAVE_MISSION",
        "52": "SHOW_BEGINNER_TOP_NOTIFY",
        "53": "GET_ARENA_REWARD",
        "54": "SHOW_ARENA_REWARD_RANKING",
        "55": "SHOW_ARENA_REWARD_DEFENSE",
        "56": "DLC_SHOWSIZEBEFOREDOWNLOADING",
        "57": "DLC_SHOWSIZEBEFOREDOWNLOADINGNOPREFS"
    },
    "ConditionsDetail": {
        "1": "IsSelf",
        "2": "IsUnitLv",
        "4": "IsAwake",
        "8": "IsJobLv",
        "16": "IsTobiraLv"
    },
    "Constraint": {
        "0": "Flexible",
        "1": "FixedColumnCount",
        "2": "FixedRowCount"
    },
    "ContentType": {
        "0": "NONE",
        "1": "UNIT",
        "2": "PIECE",
        "3": "SUPPORT"
    },
    "Corner": {
        "0": "UpperLeft",
        "1": "UpperRight",
        "2": "LowerLeft",
        "3": "LowerRight"
    },
    "CreateItemResult": {
        "0": "NotEnough",
        "1": "CanCreate",
        "2": "CanCreateCommon"
    },
    "CriticalSections": {
        "1": "Default",
        "2": "Network",
        "4": "SceneChange",
        "8": "ExDownload"
    },
    "DamageTypes": {
        "0": "None",
        "1": "TotalDamage",
        "2": "PhyDamage",
        "3": "MagDamage"
    },
    "DeadTypes": {
        "0": "Damage",
        "1": "Poison",
        "2": "DeathSentence"
    },
    "DeathAnimationTypes": {
        "1": "Normal"
    },
    "Direction": {
        "0": "Vertical",
        "1": "Horizontal"
    },
    "DiscountGrade": {
        "0": "None",
        "1": "Low",
        "2": "Middle",
        "3": "High"
    },
    "DispConditions": {
        "0": "None",
        "1": "PlayerLvMore",
        "2": "PlayerLvLess",
        "3": "Beginner",
        "4": "NotBeginner"
    },
    "DispType": {
        "0": "NONE",
        "1": "ATK",
        "2": "DEF",
        "3": "MAG",
        "4": "MND"
    },
    "DownloadAssets": {
        "1": "Tutorial",
        "2": "OwnUnits",
        "4": "AllUnits",
        "8": "ItemIcons",
        "16": "Multiplay",
        "32": "Artifacts",
        "64": "LoginBonus",
        "128": "OwnConceptCard",
        "256": "SkinConceptCard",
        "512": "Town",
        "1024": "iOSRequire",
        "2048": "All_PlayableUnits",
        "4096": "All_Artifacts",
        "8192": "All_ConceptCards",
        "16384": "ChallengableAllSectionQuests",
        "32768": "Home_Raid",
        "65536": "Home_Tower",
        "131072": "Home_MultiTower",
        "262144": "Home_MultiPlay",
        "524288": "All_UnManagedAssets"
    },
    "DropClasses": {
        "0": "Unit",
        "1": "Item"
    },
    "EAbilitySlot": {
        "0": "Action",
        "1": "Support",
        "2": "Reaction"
    },
    "EAbilityType": {
        "0": "Active",
        "1": "Passive"
    },
    "EAbilityTypeDetail": {
        "0": "Default",
        "1": "Job_Unique",
        "2": "Job_Basic",
        "3": "Job_Support",
        "4": "Job_Reaction",
        "5": "MasterAbility",
        "6": "CollaboAbility",
        "7": "WeaponAbility",
        "8": "VisionAbility",
        "9": "MapEffectAbility",
        "10": "TobiraAbility"
    },
    "EAppType": {
        "0": "Standard",
        "1": "AllKillCount",
        "2": "SelfKillCount"
    },
    "EBattleCommand": {
        "0": "None",
        "1": "Attack",
        "2": "Skill",
        "3": "Item",
        "4": "Wait"
    },
    "EBattleFlag": {
        "0": "Initialized",
        "1": "MapStart",
        "2": "UnitStart",
        "3": "MapCommand",
        "4": "Battle",
        "5": "PredictResult",
        "6": "ComputeAI",
        "7": "IsNotClearPrevBuff"
    },
    "EBattleRewardType": {
        "0": "None",
        "1": "Unknown",
        "2": "Item",
        "3": "ConceptCard"
    },
    "EBirth": {
        "0": "Unknown",
        "1": "Envy",
        "2": "Wrath",
        "3": "Sloth",
        "4": "Lust",
        "5": "Gluttony",
        "6": "Greed",
        "7": "Saga",
        "8": "Wadatsumi",
        "9": "Desert",
        "10": "Northan",
        "11": "LostBlue",
        "100": "Other"
    },
    "ECastTypes": {
        "0": "Chant",
        "1": "Charge",
        "2": "Jump"
    },
    "ECommonType": {
        "0": "Graph",
        "1": "Piece",
        "2": "Soul",
        "3": "Num"
    },
    "EConnectMode": {
        "0": "Online",
        "1": "Offline"
    },
    "EDeserializeFlags": {
        "0": "None",
        "1": "Gold",
        "2": "Coin",
        "4": "Stamina",
        "8": "Cave",
        "16": "AbilityUp",
        "32": "Arena",
        "64": "Tour"
    },
    "EEffRange": {
        "0": "Self",
        "1": "SelfNearAlly"
    },
    "EElement": {
        "0": "None",
        "1": "Fire",
        "2": "Water",
        "3": "Wind",
        "4": "Thunder",
        "5": "Shine",
        "6": "Dark"
    },
    "EElementEffectTypes": {
        "0": "NotEffective",
        "1": "Normal",
        "2": "Effective"
    },
    "EErrCode": {
        "-2": "TimeOut",
        "-1": "Failed",
        "0": "Success",
        "1": "Unknown",
        "2": "Version",
        "3": "AssetVersion",
        "4": "NoVersionDbg",
        "100": "NoSID",
        "200": "Maintenance",
        "201": "ChatMaintenance",
        "202": "MultiMaintenance",
        "203": "VsMaintenance",
        "204": "BattleRecordMaintenance",
        "205": "MultiVersionMaintenance",
        "206": "MultiTowerMaintenance",
        "207": "RankingQuestMaintenance",
        "300": "IllegalParam",
        "400": "API",
        "401": "NotLocation",
        "500": "ServerNotify",
        "1000": "NoFile",
        "1100": "NoVersion",
        "1200": "SessionFailure",
        "1300": "CreateStopped",
        "1400": "IllegalName",
        "1500": "NoMail",
        "1501": "MailReadable",
        "1600": "ReqFriendRequestMax",
        "1601": "ReqFriendIsFull",
        "1602": "ReqNoFriend",
        "1603": "ReqFriendRegistered",
        "1604": "ReqFriendRequesting",
        "1700": "RmNoFriend",
        "1701": "RmFriendIsMe",
        "1800": "NoUnitParty",
        "1801": "IllegalParty",
        "1900": "ExpMaterialShort",
        "2000": "RareMaterialShort",
        "2001": "RarePlayerLvShort",
        "2100": "PlusMaterialShot",
        "2101": "PlusPlayerLvShort",
        "2200": "AbilityMaterialShort",
        "2201": "AbilityNotFound",
        "2300": "NoJobSetJob",
        "2301": "CantSelectJob",
        "2302": "NoUnitSetJob",
        "2400": "NoAbilitySetAbility",
        "2401": "NoJobSetAbility",
        "2402": "UnsetAbility",
        "2500": "NoJobSetEquip",
        "2501": "NoEquipItem",
        "2502": "Equipped",
        "2600": "NoJobEnforceEquip",
        "2601": "NoEquipEnforce",
        "2602": "ForceMax",
        "2603": "MaterialShort",
        "2604": "EnforcePlayerLvShort",
        "2700": "NoJobLvUpEquip",
        "2701": "EquipNotComp",
        "2702": "PlusShort",
        "2800": "NoItemSell",
        "2801": "ConvertAnotherItem",
        "2802": "GoldOverSell",
        "2900": "StaminaCoinShort",
        "2901": "AddStaminaLimit",
        "3000": "AbilityCoinShort",
        "3001": "AbilityVipLvShort",
        "3002": "AbilityPlayerLvShort",
        "3200": "GouseiNoTarget",
        "3201": "GouseiMaterialShort",
        "3202": "GouseiCostShort",
        "3300": "UnSelectable",
        "3301": "OutOfDateQuest",
        "3302": "QuestNotEnd",
        "3303": "ChallengeLimit",
        "3308": "NotGpsQuest",
        "3309": "RecordLimitUpload",
        "3400": "QuestResume",
        "3500": "QuestEnd",
        "3600": "ContinueCostShort",
        "3601": "CantContinue",
        "3700": "NoBtlInfo",
        "3701": "MultiPlayerLvShort",
        "3702": "MultiBtlNotEnd",
        "3704": "MultiVersionMismatch",
        "3800": "ColoCantSelect",
        "3801": "ColoIsBusy",
        "3802": "ColoCostShort",
        "3803": "ColoIntervalShort",
        "3804": "ColoBattleNotEnd",
        "3805": "ColoPlayerLvShort",
        "3806": "ColoVipShort",
        "3807": "ColoRankLower",
        "3900": "ColoNoBattle",
        "3901": "ColoRankModify",
        "3902": "ColoMyRankModify",
        "4000": "NoGacha",
        "4001": "GachaCostShort",
        "4002": "GachaItemMax",
        "4003": "GachaNotFree",
        "4004": "GachaPaidLimitOver",
        "4005": "GachaPlyLvOver",
        "4006": "GachaPlyNewOver",
        "4007": "GachaLimitSoldOut",
        "4008": "GachaLimitCntOver",
        "4010": "GachaOutofPeriod",
        "4011": "CanNotApplyDiscount",
        "4012": "AlreadyApplyDiscount",
        "4100": "TrophyRewarded",
        "4101": "TrophyOutOfDate",
        "4102": "TrophyRollBack",
        "4112": "BingoOutofDateReceive",
        "4200": "ShopRefreshCostShort",
        "4201": "ShopRefreshLvSort",
        "4300": "ShopSoldOut",
        "4301": "ShopBuyCostShort",
        "4302": "ShopBuyLvShort",
        "4303": "ShopBuyNotFound",
        "4304": "ShopBuyItemNotFound",
        "4305": "ShopRefreshItemList",
        "4306": "ShopBuyOutofItemPeriod",
        "4400": "GoldBuyCostShort",
        "4401": "GoldBuyLimit",
        "4403": "EventShopOutOfPeriod",
        "4405": "EventShopOutOfBuyLimit",
        "4500": "ProductIllegalDate",
        "4600": "ProductPurchaseMax",
        "4601": "ProductCantPurchase",
        "4700": "HikkoshiNoToken",
        "4800": "RoomFailedMakeRoom",
        "4801": "RoomIllegalComment",
        "4900": "RoomNoRoom",
        "4901": "NoWatching",
        "4902": "RepelledBlockList",
        "5000": "NoDevice",
        "5001": "Authorize",
        "5002": "GauthNoSid",
        "5003": "ReturnForceTitle",
        "5100": "MigrateIllCode",
        "5101": "MigrateSameDev",
        "5102": "MigrateLockCode",
        "5500": "ColoResetCostShort",
        "5600": "RaidTicketShort",
        "5700": "UnitAddExist",
        "5701": "UnitAddCostShort",
        "5702": "UnitAddCantUnlock",
        "5800": "RoomPlayerLvShort",
        "5900": "ApprNoFriend",
        "5901": "ApprNoRequest",
        "5902": "ApprRequestMax",
        "5903": "ApprFriendIsFull",
        "6000": "FindNoFriend",
        "6001": "FindIsMine",
        "8005": "CountLimitForPlayer",
        "8008": "QR_OutOfPeriod",
        "8009": "QR_InvalidQRSerial",
        "8010": "QR_CanNotReward",
        "8011": "QR_LockSerialCampaign",
        "8012": "QR_AlreadyRewardSkin",
        "8100": "ChargeError",
        "8101": "ChargeAge000",
        "8102": "ChargeVipRemains",
        "8103": "FirstChargeInvalid",
        "8104": "FirstChargeNoLog",
        "8105": "FirstChargeReceipt",
        "8106": "FirstChargePast",
        "8107": "ChargePremiumRemains",
        "8108": "ChargePremiumInvalid",
        "8201": "TowerLocked",
        "8202": "ConditionsErr",
        "8203": "NotRecovery_permit",
        "8211": "NotExist_tower",
        "8212": "NotExist_reward",
        "8213": "NotExist_floor",
        "8221": "NoMatch_party",
        "8222": "NoMatch_mid",
        "8231": "IncorrectCoin",
        "8232": "IncorrectBtlparam",
        "8241": "AlreadyClear",
        "8242": "AlreadyBtlend",
        "8243": "FaildRegistration",
        "8244": "FaildReset",
        "8500": "NoChannelAction",
        "8501": "NoUserAction",
        "8502": "SendChatInterval",
        "8503": "CanNotAddBlackList",
        "8600": "NotGpsMail",
        "8601": "ReceivedGpsMail",
        "8800": "AcheiveMigrateIllcode",
        "8801": "AcheiveMigrateNoCoop",
        "8802": "AcheiveMigrateLock",
        "8803": "AcheiveMigrateAuthorize",
        "9000": "ArtifactBoxLimit",
        "9001": "ArtifactPieceShort",
        "9002": "ArtifactMatShort",
        "9003": "ArtifactFavorite",
        "9010": "SkinNoSkin",
        "9011": "SkinNoJob",
        "9020": "Gift_ConceptCardBoxLimit",
        "10000": "VS_NotSelfBattle",
        "10001": "VS_NotPlayer",
        "10002": "VS_NotQuestInfo",
        "10003": "VS_NotLINERoomInfo",
        "10004": "VS_FailRoomID",
        "10005": "VS_BattleEnd",
        "10006": "VS_NotQuestData",
        "10007": "VS_NotPhotonAppID",
        "10008": "VS_Version",
        "10009": "VS_IllComment",
        "10010": "VS_LvShort",
        "10011": "VS_BattleNotEnd",
        "10012": "VS_NoRoom",
        "10013": "VS_ComBattleEnd",
        "10014": "VS_FaildSeasonGift",
        "10015": "VS_TowerNotPlay",
        "10016": "VS_NotContinuousEnemy",
        "10017": "VS_RowerNotMatching",
        "10018": "VS_EnableTimeOutOfPriod",
        "10100": "QuestBookmark_RequestMax",
        "10101": "QuestBookmark_AlreadyLimited",
        "11000": "DmmSessionExpired",
        "12001": "MT_NotClearFloor",
        "12002": "MT_AlreadyFinish",
        "12003": "MT_NoRoom",
        "12004": "MT_CanNotSkipFloor",
        "13001": "RankingQuest_NotNewScore",
        "13002": "RankingQuest_AlreadyEntry",
        "13003": "RankingQuest_OutOfPeriod",
        "14001": "Gallery_MigrationInProgress",
        "16001": "QuestArchive_ArchiveNotFound",
        "16002": "QuestArchive_ArchiveNotOpened",
        "16003": "QuestArchive_ArchiveAlreadyOpened",
        "17001": "InspSkill_IncorrectParam",
        "17002": "InspSkill_NotExistArtifact",
        "17003": "InspSkill_NotExistInspirationSkill",
        "17004": "InspSkill_ArtifactFavorite",
        "17005": "InspSkill_IncorrectMixArtifact",
        "17006": "InspSkill_CannotLevelUpLevelMax",
        "17007": "InspSkill_CannotResetNotFound",
        "17008": "InspSkill_CostShort",
        "17009": "InspSkill_CannotAddSlotArtifact",
        "17010": "InspSkill_CannotAddSlotNumMax",
        "18001": "BoxGacha_NotExistBox",
        "18002": "BoxGacha_CostShort",
        "18003": "BoxGacha_RemainShort",
        "18004": "BoxGacha_NotResetBox",
        "19001": "Genesis_OutOfPeriod",
        "20001": "CoinBuyUse_OutOfPeriod",
        "20010": "Guild_JoinedAlready",
        "20020": "Guild_NotJoined_First",
        "20021": "Guild_NotJoined",
        "20022": "Guild_AutoJoinTargetMissing",
        "20040": "Guild_NotFound",
        "20050": "Guild_NotFoundEntryRequest",
        "20070": "Guild_AlredyMember",
        "20080": "Guild_MemberMax",
        "20081": "Guild_SubMasterMax",
        "20091": "Guild_RaidDissolutionFaild",
        "20102": "Guild_RaidLeaveFaild",
        "20110": "Guild_LeaveFailed",
        "20135": "Guild_RaidKickFaild",
        "20140": "Guild_InputNgWord",
        "20202": "Guild_InvestLimitOneDay",
        "20220": "Guild_PayerCoinShort",
        "20230": "Guild_ShortPlayerLv",
        "20231": "Guild_ApplySendLevelShort",
        "20240": "Guild_EntryCoolTime",
        "20241": "Guild_InvestCoolTime",
        "21010": "Raid_OutOfPeriod",
        "21011": "Raid_OutOfOenTime",
        "21020": "Raid_NotRaidbossCurrent",
        "21030": "Raid_IncorrectBtlparam",
        "21040": "Raid_AlreadyClear",
        "21050": "Raid_AlreadyBtlend",
        "21060": "Raid_AlreadyRaidbossSelected",
        "21070": "Raid_AlreadyBeat",
        "21080": "Raid_NotFound",
        "21090": "Raid_NotRewardReady",
        "21100": "Raid_NotRescueBattle",
        "21101": "Raid_OverRescue",
        "21102": "Raid_AlredyRescueCancel",
        "21110": "Raid_NotRewardAreaRound",
        "21120": "Raid_CanNotNextAreaBossNotBeat",
        "21130": "Raid_CanNotNextAreaNotGetReward",
        "21140": "Raid_CanNotNextAreaCurrentAreaIsLast",
        "21150": "Raid_CanNotRoundBossNotBeat",
        "21160": "Raid_CanNotRoundNotGetReward",
        "21170": "Raid_CanNotRoundCurrentAreaIsNotLast",
        "21180": "Raid_NotComplete",
        "21190": "Raid_CanNotSubBp",
        "21200": "Raid_CanNotSelectAreaClear",
        "21300": "Raid_CanNotRescuePlLvShort",
        "21400": "Raid_CanNotRescueTimeOver",
        "21500": "Raid_RankRewardOutOfPeriod",
        "21600": "Raid_RankRewardAlreadyReceived"
    },
    "EEventGimmick": {
        "0": "None",
        "1": "Heal",
        "2": "AtkUp",
        "3": "DefUp",
        "4": "MagUp",
        "5": "MndUp",
        "6": "RecUp",
        "7": "SpdUp",
        "8": "CriUp",
        "9": "LukUp",
        "10": "MovUp"
    },
    "EEventTrigger": {
        "0": "Stop",
        "1": "Dead",
        "2": "Initialized",
        "3": "ExecuteOnGrid",
        "4": "HpDownBorder",
        "5": "WdHpDownRate",
        "6": "WdHpDownValue",
        "7": "WdElapsedTurn",
        "8": "WdStandbyGrid",
        "9": "WdDeadUnit",
        "10": "WdUsedSkill"
    },
    "EEventType": {
        "0": "None",
        "1": "Win",
        "2": "Lose",
        "3": "Treasure",
        "4": "Gem",
        "5": "Withdraw"
    },
    "EFilter": {
        "0": "ALL",
        "1": "Unlock",
        "2": "Lock",
        "3": "Complete"
    },
    "EGemIcon": {
        "0": "Normal",
        "1": "Heal",
        "2": "CriUp",
        "3": "MovUp"
    },
    "EGridState": {
        "0": "Select",
        "1": "Target"
    },
    "EHitTypes": {
        "1": "BackAttack",
        "2": "SideAttack",
        "4": "ItemSteal",
        "8": "GoldSteal",
        "16": "GemsSteal",
        "32": "Guts",
        "64": "Combination",
        "128": "Defend",
        "256": "CastBreak",
        "512": "PerfectAvoid"
    },
    "EItemTabType": {
        "0": "None",
        "1": "Used",
        "2": "Equip",
        "3": "Material",
        "4": "EvolutionMaterial",
        "5": "UnitPiece",
        "6": "ArtifactPiece",
        "7": "Ticket",
        "8": "Other"
    },
    "EItemType": {
        "0": "Used",
        "1": "UnitPiece",
        "2": "ItemPiece",
        "3": "Equip",
        "4": "Material",
        "5": "ExpUpPlayer",
        "6": "ExpUpUnit",
        "7": "ExpUpSkill",
        "8": "ExpUpEquip",
        "9": "GoldConvert",
        "10": "Ticket",
        "11": "ItemPiecePiece",
        "12": "Other",
        "13": "ExpUpArtifact",
        "14": "ArtifactPiece",
        "15": "UnitSkin",
        "16": "Unit",
        "17": "EventCoin",
        "18": "UnitSelectItem",
        "19": "Award",
        "20": "ApHeal",
        "21": "ConceptCardSelectItem",
        "22": "ExpGuildFacility",
        "23": "DISCOUNT_GACHA"
    },
    "ELineType": {
        "0": "None",
        "1": "Direct",
        "2": "Curved",
        "3": "Stab"
    },
    "ELoadMasterDataResult": {
        "0": "NOT_YET_MATE",
        "1": "SUCCESS",
        "2": "ERROR_MASTER_PARAM_DECRYPT",
        "3": "ERROR_QUEST_PARAM_DECRYPT",
        "4": "ERROR_QUEST_DROP_PARAM_DECRYPT",
        "5": "ERROR_MASTER_PARAM_DESERIALIZE",
        "6": "ERROR_QUEST_PARAM_DESERIALIZE",
        "7": "ERROR_OTHER"
    },
    "EMarkType": {
        "0": "None",
        "1": "MapChest",
        "2": "MapGem"
    },
    "EMissionType": {
        "0": "KillAllEnemy",
        "1": "NoDeath",
        "2": "LimitedTurn",
        "3": "ComboCount",
        "4": "MaxSkillCount",
        "5": "MaxItemCount",
        "6": "MaxPartySize",
        "7": "LimitedUnitElement",
        "8": "LimitedUnitID",
        "9": "NoMercenary",
        "10": "Killstreak",
        "11": "TotalHealHPMax",
        "12": "TotalHealHPMin",
        "13": "TotalDamagesTakenMax",
        "14": "TotalDamagesTakenMin",
        "15": "TotalDamagesMax",
        "16": "TotalDamagesMin",
        "17": "LimitedCT",
        "18": "LimitedContinue",
        "19": "NoNpcDeath",
        "20": "TargetKillstreak",
        "21": "NoTargetDeath",
        "22": "BreakObjClashMax",
        "23": "BreakObjClashMin",
        "24": "WithdrawUnit",
        "25": "UseMercenary",
        "26": "LimitedUnitID_MainOnly",
        "27": "MissionAllCompleteAtOnce",
        "28": "OnlyTargetArtifactType",
        "29": "OnlyTargetArtifactType_MainOnly",
        "30": "OnlyTargetJobs",
        "31": "OnlyTargetJobs_MainOnly",
        "32": "OnlyTargetUnitBirthplace",
        "33": "OnlyTargetUnitBirthplace_MainOnly",
        "34": "OnlyTargetSex",
        "35": "OnlyTargetSex_MainOnly",
        "36": "OnlyHeroUnit",
        "37": "OnlyHeroUnit_MainOnly",
        "38": "Finisher",
        "39": "TotalGetTreasureCount",
        "40": "KillstreakByUsingTargetItem",
        "41": "KillstreakByUsingTargetSkill",
        "42": "MaxPartySize_IgnoreFriend",
        "43": "NoAutoMode",
        "44": "NoDeath_NoContinue",
        "45": "OnlyTargetUnits",
        "46": "OnlyTargetUnits_MainOnly",
        "47": "LimitedTurn_Leader",
        "48": "NoDeathTargetNpcUnits",
        "49": "UseTargetSkill",
        "50": "TotalKillstreakCount",
        "51": "TotalGetGemCount_Over",
        "52": "TotalGetGemCount_Less",
        "53": "TeamPartySizeMax_IncMercenary",
        "54": "TeamPartySizeMax_NoMercenary",
        "55": "ChallengeCountMax",
        "56": "DeathCountMax",
        "57": "DamageOver",
        "58": "SurviveUnit",
        "59": "KillTargetEnemy",
        "60": "TakenDamageLessEqual",
        "61": "TakenDamageGreatorEqual",
        "62": "LimitedTurnLessEqualPartyOnly",
        "63": "LimitedTurnGreatorEqualPartyOnly",
        "64": "KillEnemy",
        "65": "BreakObj",
        "66": "LimitedTurnLessEqualPartyAndNPC",
        "67": "LimitedTurnGreatorEqualPartyAndNPC"
    },
    "EMultiPlayCommand": {
        "0": "NOP",
        "1": "MOVE_START",
        "2": "MOVE",
        "3": "GRID_XY",
        "4": "MOVE_END",
        "5": "MOVE_CANCEL",
        "6": "ENTRY_BATTLE",
        "7": "GRID_EVENT",
        "8": "UNIT_END",
        "9": "UNIT_TIME_LIMIT",
        "10": "UNIT_XYDIR",
        "11": "NUM"
    },
    "EMultiPlayContinue": {
        "0": "PENDING",
        "1": "CONTINUE",
        "2": "CANCEL"
    },
    "EMultiPlayRecvDataHeader": {
        "0": "NOP",
        "1": "INPUT",
        "2": "CHECK",
        "3": "GOODJOB",
        "4": "CONTINUE",
        "5": "IGNORE_MY_DISCONNECT",
        "6": "FINISH_LOAD",
        "7": "REQUEST_RESUME",
        "8": "RESUME_INFO",
        "9": "RESUME_SUCCESS",
        "10": "SYNC",
        "11": "SYNC_RESUME",
        "12": "VS_RETIRE",
        "13": "VS_RETIRE_COMFIRM",
        "14": "CHEAT_MOVE",
        "15": "CHEAT_MP",
        "16": "CHEAT_RANGE",
        "17": "OTHERPLAYER_DISCONNECT",
        "18": "NUM"
    },
    "ENotifyDisconnectedPlayerType": {
        "0": "NORMAL",
        "1": "OWNER",
        "2": "OWNER_AND_I_AM_OWNER"
    },
    "ERarity": {
        "0": "NN",
        "1": "HN",
        "2": "RR",
        "3": "SR",
        "4": "UR",
        "5": "LD"
    },
    "ESaleType": {
        "0": "Gold",
        "1": "Coin",
        "2": "TourCoin",
        "3": "ArenaCoin",
        "4": "PiecePoint",
        "5": "MultiCoin",
        "6": "EventCoin",
        "7": "Coin_P"
    },
    "ESelectType": {
        "0": "Cross",
        "1": "Diamond",
        "2": "Square",
        "3": "Laser",
        "4": "All",
        "5": "Wall",
        "6": "WallPlus",
        "7": "Bishop",
        "8": "Victory",
        "9": "LaserSpread",
        "10": "LaserWide",
        "11": "Horse",
        "12": "LaserTwin",
        "13": "LaserTriple",
        "14": "SquareOutline"
    },
    "ESex": {
        "0": "Unknown",
        "1": "Male",
        "2": "Female"
    },
    "EShopItemType": {
        "0": "Item",
        "1": "Artifact",
        "2": "ConceptCard",
        "3": "Set",
        "4": "Unknown"
    },
    "EShopType": {
        "0": "Normal",
        "1": "Tabi",
        "2": "Kimagure",
        "3": "Monozuki",
        "4": "Tour",
        "5": "Arena",
        "6": "Multi",
        "7": "AwakePiece",
        "8": "Artifact",
        "9": "Event",
        "10": "Limited",
        "11": "Guerrilla"
    },
    "ESkillAbilityDeriveConds": {
        "0": "Unknown",
        "1": "EquipArtifact"
    },
    "ESkillCondition": {
        "0": "None",
        "1": "Dying",
        "2": "MapEffect",
        "3": "Weather",
        "4": "CardSkill",
        "5": "JudgeHP",
        "6": "CardLsSkill"
    },
    "ESkillTarget": {
        "0": "Self",
        "1": "SelfSide",
        "2": "EnemySide",
        "3": "UnitAll",
        "4": "NotSelf",
        "5": "GridNoUnit",
        "6": "ValidGrid",
        "7": "SelfSideNotSelf"
    },
    "ESkillTiming": {
        "0": "Used",
        "1": "Passive",
        "2": "Wait",
        "3": "Dead",
        "4": "DamageCalculate",
        "5": "DamageControl",
        "6": "Reaction",
        "7": "FirstReaction",
        "8": "Auto",
        "9": "Dying",
        "10": "JudgeHP"
    },
    "ESkillType": {
        "0": "Attack",
        "1": "Skill",
        "2": "Passive",
        "3": "Item",
        "4": "Reaction"
    },
    "EState": {
        "0": "NOP",
        "1": "READY",
        "2": "START",
        "3": "START_CONFIRM",
        "4": "EDIT",
        "5": "FLOOR_SELECT",
        "6": "NUM"
    },
    "EStatus": {
        "0": "New",
        "1": "Challenged",
        "2": "Lock",
        "3": "Complete"
    },
    "ETabType": {
        "0": "Encounter",
        "1": "Season",
        "2": "Artifact"
    },
    "ETipsType": {
        "0": "Training",
        "1": "Battle",
        "9": "Other"
    },
    "EType": {
        "0": "RAID",
        "1": "VERSUS",
        "2": "TOWER",
        "3": "RANKMATCH",
        "4": "NUM"
    },
    "EUnitCommandFlag": {
        "1": "Move",
        "2": "Action"
    },
    "EUnitCondition": {
        "1": "Poison",
        "2": "Paralysed",
        "4": "Stun",
        "8": "Sleep",
        "16": "Charm",
        "32": "Stone",
        "64": "Blindness",
        "128": "DisableSkill",
        "256": "DisableMove",
        "512": "DisableAttack",
        "1024": "Zombie",
        "2048": "DeathSentence",
        "4096": "Berserk",
        "8192": "DisableKnockback",
        "16384": "DisableBuff",
        "32768": "DisableDebuff",
        "65536": "Stop",
        "131072": "Fast",
        "262144": "Slow",
        "524288": "AutoHeal",
        "1048576": "Donsoku",
        "2097152": "Rage",
        "4194304": "GoodSleep",
        "8388608": "AutoJewel",
        "16777216": "DisableHeal",
        "33554432": "DisableSingleAttack",
        "67108864": "DisableAreaAttack",
        "134217728": "DisableDecCT",
        "268435456": "DisableIncCT",
        "536870912": "DisableEsaFire",
        "1073741824": "DisableEsaWater",
        "2147483648": "DisableEsaWind",
        "4294967296": "DisableEsaThunder",
        "8589934592": "DisableEsaShine",
        "17179869184": "DisableEsaDark",
        "34359738368": "DisableMaxDamageHp",
        "68719476736": "DisableMaxDamageMp",
        "137438953472": "DisableSideAttack",
        "274877906944": "DisableBackAttack",
        "549755813888": "DisableObstReaction"
    },
    "EUnitDirection": {
        "0": "PositiveX",
        "1": "PositiveY",
        "2": "NegativeX",
        "3": "NegativeY",
        "4": "Auto"
    },
    "EUnitFlag": {
        "1": "Entried",
        "2": "Moved",
        "4": "Action",
        "8": "Searched",
        "16": "Defended",
        "32": "SideAttack",
        "64": "BackAttack",
        "128": "Escaped",
        "256": "Sneaking",
        "512": "Paralysed",
        "1024": "ForceMoved",
        "2048": "ForceEntried",
        "4096": "ForceAuto",
        "8192": "EntryDead",
        "16384": "FirstAction",
        "32768": "DisableFirstVoice",
        "65536": "DamagedActionStart",
        "131072": "TriggeredAutoSkills",
        "262144": "DisableUnitChange",
        "524288": "UnitChanged",
        "1048576": "UnitWithdraw",
        "2097152": "CreatedBreakObj",
        "4194304": "Reinforcement",
        "8388608": "ToDying",
        "16777216": "OtherTeam",
        "33554432": "IsHelp",
        "67108864": "IsDynamicTransform",
        "134217728": "InfinitySpawn",
        "268435456": "UnitTransformed"
    },
    "EUnitSide": {
        "0": "Player",
        "1": "Enemy",
        "2": "Neutral"
    },
    "EUnitType": {
        "0": "Unit",
        "1": "Treasure",
        "2": "Gem",
        "3": "EventUnit",
        "4": "BreakObj"
    },
    "EUnlockTypes": {
        "-1": "None",
        "0": "Job",
        "1": "Skill",
        "2": "Ability",
        "3": "LeaderSkill",
        "4": "MasterAbility",
        "5": "CollaboAbility"
    },
    "EUseConditionsType": {
        "0": "Match",
        "1": "NotMatch"
    },
    "EditPartyTypes": {
        "0": "Auto",
        "1": "Normal",
        "2": "Event",
        "3": "MP",
        "4": "Arena",
        "5": "ArenaDef",
        "6": "Character",
        "7": "Tower",
        "8": "Versus",
        "9": "MultiTower",
        "10": "Ordeal",
        "11": "RankMatch",
        "12": "Raid"
    },
    "EditType": {
        "0": "DEFAULT",
        "1": "PARTY",
        "2": "PARTY_TOWER",
        "3": "EQUIP",
        "4": "SUPPORT",
        "5": "SHOP_EQUIP",
        "6": "PIECE_EXCHANGE"
    },
    "EffectCheckTargets": {
        "0": "Target",
        "1": "User"
    },
    "EffectCheckTimings": {
        "0": "ActionStart",
        "1": "Eternal",
        "2": "SkillEnd",
        "3": "AttackEnd",
        "4": "DamageEnd",
        "5": "GutsEnd",
        "6": "ClockCountUp",
        "7": "Moment",
        "8": "ActionEnd",
        "9": "MomentStart",
        "10": "PrevApply"
    },
    "EffectType": {
        "0": "NONE",
        "1": "UP",
        "2": "DOWN"
    },
    "EmotionTypes": {
        "0": "Normal",
        "1": "Smile",
        "2": "Sad",
        "3": "Angry"
    },
    "EnableType": {
        "0": "None",
        "1": "IsEventQuest",
        "2": "Disable",
        "3": "Enable"
    },
    "EnchantCategory": {
        "0": "Assist",
        "1": "Resist"
    },
    "EnchantTypes": {
        "0": "Poison",
        "1": "Paralysed",
        "2": "Stun",
        "3": "Sleep",
        "4": "Charm",
        "5": "Stone",
        "6": "Blind",
        "7": "DisableSkill",
        "8": "DisableMove",
        "9": "DisableAttack",
        "10": "Zombie",
        "11": "DeathSentence",
        "12": "Berserk",
        "13": "Knockback",
        "14": "ResistBuff",
        "15": "ResistDebuff",
        "16": "Stop",
        "17": "Fast",
        "18": "Slow",
        "19": "AutoHeal",
        "20": "Donsoku",
        "21": "Rage",
        "22": "GoodSleep",
        "23": "AutoJewel",
        "24": "DisableHeal",
        "25": "SingleAttack",
        "26": "AreaAttack",
        "27": "DecCT",
        "28": "IncCT",
        "29": "ESA_Fire",
        "30": "ESA_Water",
        "31": "ESA_Wind",
        "32": "ESA_Thunder",
        "33": "ESA_Shine",
        "34": "ESA_Dark",
        "35": "MaxDamageHp",
        "36": "MaxDamageMp",
        "37": "SideAttack",
        "38": "BackAttack",
        "39": "ObstReaction"
    },
    "EqualType": {
        "0": "FailedIID",
        "1": "Equal",
        "2": "NotEqual"
    },
    "EquipmentType": {
        "0": "PRIMARY",
        "1": "SECONDARY"
    },
    "ErrorType": {
        "0": "None",
        "1": "Quest",
        "2": "UnitNone",
        "3": "UnitLevel",
        "4": "UnitAwakeLevel",
        "5": "UnitJobLevel",
        "6": "UnitTobiraLevel",
        "7": "UnitOpenAllJobs"
    },
    "EventQuestListType": {
        "0": "EventQuest",
        "1": "KeyQuest",
        "2": "Tower",
        "3": "RankingQuest",
        "4": "BeginnerQuest",
        "5": "Seiseki",
        "6": "Babel",
        "7": "EventQuestArchive",
        "8": "DailyAndEnhance"
    },
    "EventQuestTypes": {
        "0": "Normal",
        "1": "Key",
        "2": "Gps",
        "3": "Tower",
        "4": "Ranking",
        "5": "Beginner",
        "6": "NormalAndGps",
        "7": "Archive"
    },
    "EventType": {
        "0": "SETUP",
        "1": "ENABLE",
        "2": "DISABLE"
    },
    "EventTypes": {
        "0": "Opened",
        "1": "Closed"
    },
    "ExitRequests": {
        "0": "None",
        "1": "End",
        "2": "Restart"
    },
    "FadeModes": {
        "0": "Screen",
        "1": "Scene"
    },
    "FilterType": {
        "0": "None",
        "1": "Monochrome",
        "2": "Sepia"
    },
    "FilterTypes": {
        "0": "All",
        "1": "Used",
        "2": "Equip",
        "3": "ItemPiece",
        "4": "Material",
        "5": "UnitPiece"
    },
    "FirstChargeState": {
        "0": "NotValidCampaign",
        "1": "NotPurchase",
        "2": "Purchased",
        "3": "CampaignFinished"
    },
    "Flag": {
        "0": "ArmorCountLessThan3",
        "1": "SelectArmor",
        "2": "ArmorRarityReachedBy4"
    },
    "Flags": {
        "1": "IsBattleScene"
    },
    "FriendStates": {
        "0": "None",
        "1": "Friend",
        "2": "Follow",
        "3": "Follwer"
    },
    "GGachaCostType": {
        "0": "NONE",
        "1": "COIN",
        "2": "COIN_P",
        "3": "GOLD",
        "4": "TICKET",
        "5": "FREE_COIN",
        "6": "FREE_GOLD",
        "7": "ALL"
    },
    "GachaCategory": {
        "0": "NONE",
        "1": "DEFAULT_RARE",
        "2": "DEFAULT_NORMAL"
    },
    "GachaCategoryType": {
        "0": "NONE",
        "1": "RARE",
        "2": "NORMAL",
        "3": "STEPUP",
        "4": "ALL"
    },
    "GachaCostType": {
        "0": "NONE",
        "1": "COIN",
        "2": "COIN_P",
        "3": "GOLD",
        "4": "TICKET",
        "5": "FREE_COIN",
        "6": "FREE_GOLD",
        "7": "ALL"
    },
    "GachaNumType": {
        "0": "NONE",
        "1": "SINGLE",
        "2": "MULTI",
        "3": "ALL"
    },
    "GachaResultType": {
        "0": "None",
        "1": "Unit",
        "2": "Item",
        "3": "Piece",
        "4": "Artifact",
        "5": "ConceptCard",
        "6": "End"
    },
    "GachaTabCategory": {
        "0": "NONE",
        "1": "RARE",
        "2": "ARTIFACT",
        "3": "TICKET",
        "4": "NORMAL",
        "5": "SPECIAL"
    },
    "GachaTypes": {
        "0": "Normal",
        "1": "Rare",
        "2": "Vip"
    },
    "GalleryVisibilityType": {
        "0": "None",
        "1": "Hide",
        "2": "OnlyPossession"
    },
    "GaugeMode": {
        "0": "Normal",
        "1": "Attack",
        "2": "Target",
        "3": "Change"
    },
    "GiftTypes": {
        "1": "Item",
        "2": "Gold",
        "4": "Coin",
        "8": "ArenaCoin",
        "16": "MultiCoin",
        "32": "KakeraCoin",
        "64": "Artifact",
        "128": "Unit",
        "256": "SelectUnitItem",
        "512": "SelectItem",
        "1024": "SelectArtifactItem",
        "2048": "Award",
        "4096": "ConceptCard",
        "8192": "SelectConceptCardItem",
        "9984": "SelectSummonTickets",
        "10112": "IgnoreReceiveAll"
    },
    "GimmickEventTriggerType": {
        "0": "None",
        "1": "DamageCount",
        "2": "DeadUnit",
        "3": "OnGrid",
        "4": "HpLower",
        "5": "HpLowerRatio"
    },
    "GuerrillaCoef": {
        "0": "None",
        "1": "Normal",
        "2": "Hard",
        "3": "Event",
        "4": "EventExtra"
    },
    "HPGaugeModes": {
        "0": "Normal",
        "1": "Attack",
        "2": "Target",
        "3": "Change"
    },
    "HealType": {
        "0": "Hp",
        "1": "Jewel"
    },
    "HighlightGiftType": {
        "0": "Item",
        "1": "Gold",
        "2": "Coin",
        "3": "Award",
        "4": "Unit",
        "5": "ConceptCard",
        "6": "Artifact"
    },
    "HighlightType": {
        "0": "Message",
        "1": "Start",
        "2": "Days",
        "3": "Quests",
        "4": "Units",
        "5": "Artifact",
        "6": "ConceptCard",
        "7": "Arena",
        "8": "Tower",
        "9": "MultiTower",
        "10": "AlchemyPort",
        "11": "Friend"
    },
    "HitReactionTypes": {
        "-1": "None",
        "0": "Normal",
        "1": "Aerial",
        "2": "Kirimomi"
    },
    "IDType": {
        "0": "ObjectID",
        "1": "UnitID",
        "2": "ActorID"
    },
    "InspSkillCostType": {
        "0": "GOLD",
        "1": "COIN",
        "2": "COIN_P"
    },
    "InstanceTypes": {
        "0": "ArtifactData",
        "1": "ArtifactParam",
        "2": "SkillAbilityDeriveParam",
        "3": "ArtifactDataOrParam"
    },
    "ItemFilters": {
        "0": "All",
        "1": "Potions",
        "2": "Offensive"
    },
    "ItemFlags": {
        "1": "NewItem",
        "2": "NewSkin"
    },
    "ItemTypes": {
        "0": "PlayerUnits",
        "1": "PieceUnits"
    },
    "JewelDamageTypes": {
        "0": "None",
        "1": "Calc",
        "2": "Scale",
        "3": "Fixed"
    },
    "JobRankUpTypes": {
        "0": "RankUp",
        "1": "Unlock",
        "2": "ClassChange"
    },
    "JobTypes": {
        "0": "None",
        "1": "Attacker",
        "2": "Defender",
        "3": "Healer",
        "4": "Supporter"
    },
    "KakeraHideFlags": {
        "1": "LeastKakera",
        "2": "EnoughKakera",
        "4": "EnoughGold"
    },
    "KeyQuestTypes": {
        "0": "None",
        "1": "Timer",
        "2": "Count"
    },
    "LayerType": {
        "0": "Normal",
        "1": "Add",
        "2": "AlphaBlend"
    },
    "ListIconCalc": {
        "0": "AUTO",
        "1": "SEPCIFY"
    },
    "ListSource": {
        "0": "Normal",
        "1": "Kakera",
        "2": "Skill"
    },
    "ListType": {
        "0": "NORMAL",
        "1": "ENHANCE",
        "2": "SELL",
        "3": "MANAGER"
    },
    "LookAtTypes": {
        "0": "WorldPosition",
        "1": "GameObject",
        "2": "WorldRotate"
    },
    "MODE": {
        "0": "SetAwardList",
        "1": "SetPlayerAward"
    },
    "MapHitEffectTypes": {
        "0": "TargetRadial",
        "1": "EachTargets",
        "2": "EachGrids",
        "3": "Directional",
        "4": "EachHits",
        "5": "InstigatorRadial"
    },
    "MessageTemplateType": {
        "0": "None",
        "1": "OtherUser",
        "2": "User",
        "3": "System"
    },
    "Mode": {
        "0": "Normal",
        "1": "Reverse"
    },
    "ModeTarget": {
        "0": "Stage",
        "1": "Boss"
    },
    "MoveInputMethods": {
        "0": "VirtualStick",
        "1": "ClickAndGo"
    },
    "MultiType": {
        "0": "NONE",
        "1": "NORMAL",
        "2": "TOWER"
    },
    "MyError": {
        "0": "NOP",
        "1": "UNKNOWN",
        "2": "ILLEGAL_STATE",
        "3": "TIMEOUT",
        "4": "TIMEOUT2",
        "5": "FULL_CLIENTS",
        "6": "ROOM_NAME_DUPLICATED",
        "7": "ROOM_IS_FULL",
        "8": "ROOM_IS_NOT_EXIST",
        "9": "ROOM_IS_NOT_OPEN",
        "10": "RAISE_EVENT_FAILED",
        "11": "NUM"
    },
    "MyState": {
        "0": "NOP",
        "1": "CONNECTING",
        "2": "LOBBY",
        "3": "JOINING",
        "4": "ROOM",
        "5": "LEAVING",
        "6": "NUM"
    },
    "NewBadgeType": {
        "0": "None",
        "1": "Unit",
        "2": "Item",
        "3": "Artifact"
    },
    "NewsTypes": {
        "0": "None",
        "1": "Normal",
        "2": "Urgency"
    },
    "PREFIX_PATH": {
        "0": "Demo",
        "1": "Movie",
        "2": "Default"
    },
    "ParamPriorities": {
        "0": "None",
        "1": "High",
        "2": "Low"
    },
    "ParamTypes": {
        "0": "None",
        "1": "Hp",
        "2": "HpMax",
        "3": "Mp",
        "4": "MpIni",
        "5": "Atk",
        "6": "Def",
        "7": "Mag",
        "8": "Mnd",
        "9": "Rec",
        "10": "Dex",
        "11": "Spd",
        "12": "Cri",
        "13": "Luk",
        "14": "Mov",
        "15": "Jmp",
        "16": "EffectRange",
        "17": "EffectScope",
        "18": "EffectHeight",
        "19": "Assist_Fire",
        "20": "Assist_Water",
        "21": "Assist_Wind",
        "22": "Assist_Thunder",
        "23": "Assist_Shine",
        "24": "Assist_Dark",
        "25": "Assist_Poison",
        "26": "Assist_Paralysed",
        "27": "Assist_Stun",
        "28": "Assist_Sleep",
        "29": "Assist_Charm",
        "30": "Assist_Stone",
        "31": "Assist_Blind",
        "32": "Assist_DisableSkill",
        "33": "Assist_DisableMove",
        "34": "Assist_DisableAttack",
        "35": "Assist_Zombie",
        "36": "Assist_DeathSentence",
        "37": "Assist_Berserk",
        "38": "Assist_Knockback",
        "39": "Assist_ResistBuff",
        "40": "Assist_ResistDebuff",
        "41": "Assist_Stop",
        "42": "Assist_Fast",
        "43": "Assist_Slow",
        "44": "Assist_AutoHeal",
        "45": "Assist_Donsoku",
        "46": "Assist_Rage",
        "47": "Assist_GoodSleep",
        "48": "Assist_ConditionAll",
        "49": "Resist_Fire",
        "50": "Resist_Water",
        "51": "Resist_Wind",
        "52": "Resist_Thunder",
        "53": "Resist_Shine",
        "54": "Resist_Dark",
        "55": "Resist_Poison",
        "56": "Resist_Paralysed",
        "57": "Resist_Stun",
        "58": "Resist_Sleep",
        "59": "Resist_Charm",
        "60": "Resist_Stone",
        "61": "Resist_Blind",
        "62": "Resist_DisableSkill",
        "63": "Resist_DisableMove",
        "64": "Resist_DisableAttack",
        "65": "Resist_Zombie",
        "66": "Resist_DeathSentence",
        "67": "Resist_Berserk",
        "68": "Resist_Knockback",
        "69": "Resist_ResistBuff",
        "70": "Resist_ResistDebuff",
        "71": "Resist_Stop",
        "72": "Resist_Fast",
        "73": "Resist_Slow",
        "74": "Resist_AutoHeal",
        "75": "Resist_Donsoku",
        "76": "Resist_Rage",
        "77": "Resist_GoodSleep",
        "78": "Resist_ConditionAll",
        "79": "HitRate",
        "80": "AvoidRate",
        "81": "CriticalRate",
        "82": "GainJewel",
        "83": "UsedJewelRate",
        "84": "ActionCount",
        "85": "SlashAttack",
        "86": "PierceAttack",
        "87": "BlowAttack",
        "88": "ShotAttack",
        "89": "MagicAttack",
        "90": "ReactionAttack",
        "91": "JumpAttack",
        "92": "GutsRate",
        "93": "AutoJewel",
        "94": "ChargeTimeRate",
        "95": "CastTimeRate",
        "96": "BuffTurn",
        "97": "DebuffTurn",
        "98": "CombinationRange",
        "99": "HpCostRate",
        "100": "SkillUseCount",
        "101": "PoisonDamage",
        "102": "PoisonTurn",
        "103": "Assist_AutoJewel",
        "104": "Resist_AutoJewel",
        "105": "Assist_DisableHeal",
        "106": "Resist_DisableHeal",
        "107": "Resist_Slash",
        "108": "Resist_Pierce",
        "109": "Resist_Blow",
        "110": "Resist_Shot",
        "111": "Resist_Magic",
        "112": "Resist_Reaction",
        "113": "Resist_Jump",
        "114": "Avoid_Slash",
        "115": "Avoid_Pierce",
        "116": "Avoid_Blow",
        "117": "Avoid_Shot",
        "118": "Avoid_Magic",
        "119": "Avoid_Reaction",
        "120": "Avoid_Jump",
        "121": "GainJewelRate",
        "122": "UsedJewel",
        "123": "Assist_SingleAttack",
        "124": "Assist_AreaAttack",
        "125": "Resist_SingleAttack",
        "126": "Resist_AreaAttack",
        "127": "Assist_DecCT",
        "128": "Assist_IncCT",
        "129": "Resist_DecCT",
        "130": "Resist_IncCT",
        "131": "Assist_ESA_Fire",
        "132": "Assist_ESA_Water",
        "133": "Assist_ESA_Wind",
        "134": "Assist_ESA_Thunder",
        "135": "Assist_ESA_Shine",
        "136": "Assist_ESA_Dark",
        "137": "Resist_ESA_Fire",
        "138": "Resist_ESA_Water",
        "139": "Resist_ESA_Wind",
        "140": "Resist_ESA_Thunder",
        "141": "Resist_ESA_Shine",
        "142": "Resist_ESA_Dark",
        "143": "UnitDefenseFire",
        "144": "UnitDefenseWater",
        "145": "UnitDefenseWind",
        "146": "UnitDefenseThunder",
        "147": "UnitDefenseShine",
        "148": "UnitDefenseDark",
        "149": "Assist_MaxDamageHp",
        "150": "Assist_MaxDamageMp",
        "151": "Resist_MaxDamageHp",
        "152": "Resist_MaxDamageMp",
        "153": "Tokkou",
        "154": "Assist_SideAttack",
        "155": "Assist_BackAttack",
        "156": "Resist_SideAttack",
        "157": "Resist_BackAttack",
        "158": "Assist_ObstReaction",
        "159": "Resist_ObstReaction",
        "160": "CriticalDamageRate",
        "161": "NoDivAttack",
        "162": "Resist_NoDiv",
        "163": "Avoid_NoDiv",
        "164": "Resist_BuffHpMax",
        "165": "Resist_BuffAtk",
        "166": "Resist_BuffDef",
        "167": "Resist_BuffMag",
        "168": "Resist_BuffMnd",
        "169": "Resist_BuffRec",
        "170": "Resist_BuffDex",
        "171": "Resist_BuffSpd",
        "172": "Resist_BuffCri",
        "173": "Resist_BuffLuk",
        "174": "Resist_BuffMov",
        "175": "Resist_BuffJmp",
        "176": "Resist_DebuffHpMax",
        "177": "Resist_DebuffAtk",
        "178": "Resist_DebuffDef",
        "179": "Resist_DebuffMag",
        "180": "Resist_DebuffMnd",
        "181": "Resist_DebuffRec",
        "182": "Resist_DebuffDex",
        "183": "Resist_DebuffSpd",
        "184": "Resist_DebuffCri",
        "185": "Resist_DebuffLuk",
        "186": "Resist_DebuffMov",
        "187": "Resist_DebuffJmp"
    },
    "ParentType": {
        "0": "Manager",
        "1": "Equip"
    },
    "PartyBadge": {
        "0": "Main0",
        "1": "Main1",
        "2": "Main2",
        "3": "Main3",
        "4": "Sub0",
        "5": "Sub1",
        "6": "Max"
    },
    "PartyCondType": {
        "0": "None",
        "1": "Limited",
        "2": "Forced"
    },
    "PartySlotIndex": {
        "0": "Main1",
        "1": "Main2",
        "2": "Main3",
        "3": "Main4",
        "4": "Main5",
        "5": "Sub1",
        "6": "Sub2",
        "7": "Support"
    },
    "PartySlotType": {
        "0": "Main0",
        "1": "Main1",
        "2": "Sub0"
    },
    "PartyTypes": {
        "0": "Normal",
        "1": "Multi",
        "2": "Arena",
        "3": "ArenaDefense",
        "4": "RankMatch",
        "5": "Raid"
    },
    "PlayerPartyTypes": {
        "0": "Normal",
        "1": "Event",
        "2": "Multiplay",
        "3": "Arena",
        "4": "ArenaDef",
        "5": "Character",
        "6": "Tower",
        "7": "Versus",
        "8": "MultiTower",
        "9": "Ordeal",
        "10": "RankMatch",
        "11": "Raid",
        "12": "Max"
    },
    "PlayerType": {
        "0": "Player",
        "1": "Friend",
        "2": "ArenaPlayer",
        "3": "MultiPlayer",
        "4": "ChatPlayer",
        "5": "TowerPlayer",
        "6": "GuildMember",
        "100": "AwardParam"
    },
    "PointType": {
        "0": "Damage",
        "1": "Heal"
    },
    "PositionTypes": {
        "0": "OverLeft",
        "1": "Left",
        "2": "HLeft",
        "3": "Center",
        "4": "HRight",
        "5": "Right",
        "6": "OverRight",
        "7": "None"
    },
    "PostureTypes": {
        "0": "Combat",
        "1": "NonCombat"
    },
    "PredefinedGlobalEvents": {
        "0": "REFRESH_COIN_STATUS",
        "1": "REFRESH_GOLD_STATUS",
        "2": "UNLOAD_MENU",
        "3": "ERROR_NETWORK",
        "4": "BACK_NETWORK",
        "5": "MAINTENANCE_NETWORK",
        "6": "REFRESH_PLAYER_STATUS",
        "7": "ERROR_APP_QUIT",
        "8": "VERSION_MISMATCH_NETWORK"
    },
    "PrefabType": {
        "0": "SectionParamBar",
        "1": "SectionParamShop",
        "2": "SectionParamInn",
        "3": "DirectResourcePath",
        "4": "SectionParamMemberName"
    },
    "PrefsType": {
        "0": "None",
        "1": "PlayerPrefs",
        "2": "UserInfoManager",
        "3": "All"
    },
    "PrimitiveType": {
        "0": "Int",
        "1": "Long",
        "2": "Float",
        "3": "Double",
        "4": "String"
    },
    "QuestBonusObjectiveState": {
        "0": "NotCompleted",
        "1": "Completed"
    },
    "QuestCampaignScopes": {
        "0": "None",
        "1": "Quest",
        "2": "QuestType",
        "3": "Unit",
        "4": "UnitAndQuest"
    },
    "QuestCampaignValueTypes": {
        "0": "ExpPlayer",
        "1": "ExpUnit",
        "2": "DropRate",
        "3": "DropNum",
        "4": "Ap",
        "5": "TrustUp",
        "6": "TrustIncidence",
        "7": "TrustSpecific",
        "8": "InspirationSkill"
    },
    "QuestDifficulties": {
        "0": "Normal",
        "1": "Elite",
        "2": "Extra",
        "3": "MAX"
    },
    "QuestMissionProgressJudgeType": {
        "0": "NotSupport",
        "1": "GreatorEqual",
        "2": "Greator",
        "3": "LessEqual",
        "4": "Less",
        "5": "Equal",
        "6": "EqualZero"
    },
    "QuestMissionValueType": {
        "0": "ValueIsNone",
        "1": "ValueIsInt",
        "2": "ValueIsString",
        "3": "ValueIsEnumName",
        "4": "ValueIsStringArray",
        "5": "ValueIsKeyAndIntValue"
    },
    "QuestMultiTypes": {
        "0": "NOT_MULTI",
        "1": "RAID",
        "2": "VERSUS",
        "100": "EVENT_TOP",
        "101": "RAID_EVENT",
        "102": "VERSUS_EVENT",
        "103": "TOWER_EVENT"
    },
    "QuestResult": {
        "0": "Pending",
        "1": "Win",
        "2": "Lose",
        "3": "Retreat",
        "4": "Draw"
    },
    "QuestStates": {
        "0": "New",
        "1": "Challenged",
        "2": "Cleared"
    },
    "QuestTypes": {
        "0": "Story",
        "1": "Multi",
        "2": "Arena",
        "3": "Tutorial",
        "4": "Free",
        "5": "Event",
        "6": "Character",
        "7": "Tower",
        "8": "VersusFree",
        "9": "VersusRank",
        "10": "Gps",
        "11": "Extra",
        "12": "MultiTower",
        "13": "Beginner",
        "14": "MultiGps",
        "15": "Ordeal",
        "16": "RankMatch",
        "17": "Raid",
        "18": "GenesisStory",
        "19": "GenesisBoss",
        "127": "None"
    },
    "RESUME_STATE": {
        "0": "NONE",
        "1": "REQUEST",
        "2": "WAIT"
    },
    "RESUME_TYPE": {
        "0": "MULTI",
        "1": "VERSUS",
        "2": "TOWER"
    },
    "REWARD_TYPE": {
        "0": "Arrival",
        "1": "Season"
    },
    "RaidOwnerType": {
        "0": "Self",
        "1": "Rescue",
        "2": "Rescue_Temp",
        "3": "Self_Cleared"
    },
    "RaidRescueMemberType": {
        "0": "None",
        "1": "Guild",
        "2": "Friend",
        "3": "Other"
    },
    "RaidRewardKind": {
        "0": "Beat",
        "1": "DamageRatio",
        "2": "DamageAmount",
        "3": "AreaClear",
        "4": "Complete"
    },
    "RaidRewardType": {
        "0": "Item",
        "1": "Gold",
        "2": "Coin",
        "3": "Award",
        "4": "Unit",
        "5": "ConceptCard",
        "6": "Artifact",
        "7": "GuildEmblem"
    },
    "RaidSOSStatus": {
        "0": "Invalid",
        "1": "Valid",
        "2": "Done"
    },
    "RaidScheduleType": {
        "0": "Open",
        "1": "Close",
        "2": "OpenSchedule",
        "3": "CloseSchedule"
    },
    "RakingQuestScheduleGetFlags": {
        "0": "All",
        "1": "Open",
        "2": "Reward",
        "4": "Visible"
    },
    "RankMatchClass": {
        "0": "None",
        "1": "Rookie",
        "2": "Bronze",
        "3": "Silver",
        "4": "Gold",
        "5": "Platinum",
        "6": "Diamond",
        "7": "Master"
    },
    "RankMatchMissionType": {
        "0": "None",
        "1": "Battle",
        "2": "Win",
        "3": "GetPoint",
        "4": "StreakWin",
        "5": "UseUnit"
    },
    "RankingQuestRewardType": {
        "0": "item",
        "1": "coin",
        "2": "artifact",
        "3": "unit"
    },
    "RankingQuestType": {
        "0": "Unknown",
        "1": "ActionCount"
    },
    "RankingStatus": {
        "0": "Normal",
        "1": "Aggregating",
        "2": "Rewarding"
    },
    "RankingTypes": {
        "0": "world",
        "1": "friend"
    },
    "RarityUpResults": {
        "0": "Success",
        "1": "NoLv",
        "2": "NoGold",
        "4": "NoKakera",
        "8": "RarityMaxed"
    },
    "RecommendType": {
        "0": "Total",
        "1": "Attack",
        "2": "Defence",
        "3": "Magic",
        "4": "Mind",
        "5": "Speed",
        "6": "AttackTypeSlash",
        "7": "AttackTypeStab",
        "8": "AttackTypeBlow",
        "9": "AttackTypeShot",
        "10": "AttackTypeMagic",
        "11": "AttackTypeNone",
        "12": "Hp"
    },
    "RefreshTypes": {
        "0": "None",
        "1": "DisplayAll",
        "2": "DisplaySlots"
    },
    "RequestResults": {
        "0": "Success",
        "1": "Failure",
        "2": "Retry",
        "3": "Back",
        "4": "Timeout",
        "5": "Maintenance",
        "6": "VersionMismatch",
        "7": "InvalidSession",
        "8": "IllegalParam"
    },
    "RequestType": {
        "0": "REQ_GSC",
        "1": "REQ_STREAM"
    },
    "RestorePoints": {
        "0": "Home",
        "1": "QuestList",
        "2": "MP",
        "3": "UnitKyouka",
        "4": "UnitUnlock",
        "5": "Arena",
        "6": "UnitCharacterQuest",
        "7": "ReplayQuestList",
        "8": "UnitKakera",
        "9": "Tower",
        "10": "EventQuestList",
        "11": "CharacterQuestList",
        "12": "Versus",
        "13": "UnitEvolution",
        "14": "MultiTower",
        "15": "Ordeal",
        "16": "UnlockTobira",
        "17": "EnhanceTobira",
        "18": "RankMatch",
        "19": "Shop",
        "20": "BeginnerTop",
        "21": "Raid",
        "22": "GenesisStage",
        "23": "GenesisBoss"
    },
    "Result": {
        "0": "NONE",
        "1": "CONFIRM",
        "2": "CANCEL"
    },
    "RewardType": {
        "0": "Item",
        "1": "Gold",
        "2": "Coin",
        "3": "ArenaCoin",
        "4": "MultiCoin",
        "5": "KakeraCoin",
        "6": "Artifact"
    },
    "RoleTypes": {
        "0": "None",
        "1": "Zenei",
        "2": "Tyuei",
        "3": "Kouei"
    },
    "RotationModes": {
        "0": "FixedTime",
        "1": "Speed"
    },
    "RunTypes": {
        "0": "Time",
        "1": "Speed"
    },
    "SEND_TYPE": {
        "0": "Normal",
        "1": "Resume",
        "2": "Sync"
    },
    "STREAK_JUDGE": {
        "-1": "None",
        "0": "AllPriod",
        "1": "Now"
    },
    "SceneTypes": {
        "0": "Additive",
        "1": "HomeTown",
        "2": "Replace",
        "3": "BootScene"
    },
    "ScrollMode": {
        "0": "Normal",
        "1": "Reverse"
    },
    "SelectBindType": {
        "0": "ItemParam",
        "1": "ItemData"
    },
    "SelectModes": {
        "0": "Latest",
        "1": "DailyChapter",
        "2": "DailySection",
        "3": "CharacterQuestSection"
    },
    "SelectScene": {
        "0": "None",
        "1": "Gacha",
        "2": "LimitedShop",
        "3": "EventQuest",
        "4": "TowerQuest",
        "5": "BuyShop"
    },
    "SelectType": {
        "0": "NONE",
        "1": "TIME",
        "2": "RARITY",
        "4": "LEVEL",
        "8": "TOTAL",
        "16": "ATK",
        "32": "DEF",
        "64": "MAG",
        "128": "MND",
        "256": "HP",
        "512": "SPD",
        "1024": "COMBINATION",
        "2048": "JOBRANK",
        "4096": "AWAKE",
        "8192": "NAME",
        "16384": "DEX",
        "32768": "CRI",
        "65536": "LUK",
        "16777216": "SYOJYUN",
        "33554432": "KOUJYUN"
    },
    "SelectUseType": {
        "0": "UseVariable"
    },
    "SelectableType": {
        "0": "AUTO",
        "1": "BUTTON",
        "2": "TOGGLE",
        "3": "TAB"
    },
    "SendStatus": {
        "0": "NONE",
        "1": "UNSENT",
        "2": "SENDING",
        "3": "SENTFAILED",
        "4": "SENDED"
    },
    "SetType": {
        "0": "TargetArtifact",
        "1": "TargetInspirationSkill",
        "2": "MixArtifact",
        "3": "ClearTargetArtifact",
        "4": "ClearTargetInspirationSkill",
        "5": "ClearMixArtifact"
    },
    "ShieldTypes": {
        "0": "None",
        "1": "UseCount",
        "2": "Hp",
        "3": "Limitter",
        "4": "MAX"
    },
    "ShowType": {
        "0": "None",
        "1": "Skill",
        "2": "Ability",
        "3": "LockSkill"
    },
    "SiblingOrder": {
        "0": "Root",
        "1": "OnDialog",
        "2": "OnStandChara",
        "3": "OnBackGround",
        "4": "ChildOfActor"
    },
    "SkillCategory": {
        "0": "Damage",
        "1": "Heal",
        "2": "Support",
        "3": "CureCondition",
        "4": "FailCondition",
        "5": "DisableCondition",
        "6": "Transform"
    },
    "SkillEffectTargets": {
        "0": "Target",
        "1": "Self"
    },
    "SkillEffectTypes": {
        "0": "None",
        "1": "Equipment",
        "2": "Attack",
        "3": "Defend",
        "4": "Heal",
        "5": "Buff",
        "6": "Debuff",
        "7": "Revive",
        "8": "Shield",
        "9": "ReflectDamage",
        "10": "DamageControl",
        "11": "FailCondition",
        "12": "CureCondition",
        "13": "DisableCondition",
        "14": "GemsGift",
        "15": "GemsIncDec",
        "16": "Guard",
        "17": "Teleport",
        "18": "Changing",
        "19": "RateHeal",
        "20": "RateDamage",
        "21": "PerfectAvoid",
        "22": "Throw",
        "23": "EffReplace",
        "24": "SetTrick",
        "25": "TransformUnit",
        "26": "SetBreakObj",
        "27": "ChangeWeather",
        "28": "RateDamageCurrent",
        "29": "TransformUnitTakeOverHP",
        "30": "DynamicTransformUnit"
    },
    "SkillFlags": {
        "1": "EnableRankUp",
        "2": "EnableChangeRange",
        "4": "PierceAttack",
        "8": "SelfTargetSelect",
        "16": "ExecuteCutin",
        "32": "ExecuteInBattle",
        "64": "EnableHeightRangeBonus",
        "128": "EnableHeightParamAdjust",
        "256": "EnableUnitLockTarget",
        "512": "CastBreak",
        "1024": "JewelAttack",
        "2048": "ForceHit",
        "4096": "Suicide",
        "8192": "SubActuate",
        "16384": "FixedDamage",
        "32768": "ForceUnitLock",
        "65536": "AllDamageReaction",
        "131072": "ShieldReset",
        "262144": "IgnoreElement",
        "524288": "PrevApply",
        "1048576": "JudgeHpOver",
        "2097152": "MhmDamage",
        "4194304": "AcSelf",
        "8388608": "AcReset",
        "16777216": "HitTargetNumDiv",
        "33554432": "NoChargeCalcCT",
        "67108864": "JumpBreak",
        "134217728": "ObstReaction"
    },
    "SkillLockTypes": {
        "0": "None",
        "1": "PartyMemberUpper",
        "2": "PartyMemberLower",
        "3": "EnemyMemberUpper",
        "4": "EnemyMemberLower",
        "5": "HpUpper",
        "6": "HpLower",
        "7": "OnGrid"
    },
    "SkillParamCalcTypes": {
        "0": "Add",
        "1": "Scale",
        "2": "Fixed"
    },
    "SkillTiming": {
        "0": "BEFORE",
        "1": "AFTER",
        "2": "MAX"
    },
    "SlotExcludeEquipType": {
        "0": "Non",
        "1": "Arms",
        "2": "Armor",
        "3": "Mix"
    },
    "SlotStateTypes": {
        "0": "Empty",
        "1": "HasEquipment",
        "2": "NeedMoreLevel",
        "3": "Equipped",
        "4": "EnableCraft",
        "5": "EnableCraftNeedMoreLevel",
        "6": "None",
        "7": "EnableCommon",
        "8": "EnableCommonSoul",
        "9": "EnableCommonSoulNeedMoreLevel"
    },
    "SortOrder": {
        "0": "None",
        "1": "AchievemedToUnachieved",
        "2": "UnachievedToAchievemed"
    },
    "SortType": {
        "0": "Rarity",
        "1": "Name"
    },
    "StartConditions": {
        "0": "Auto",
        "1": "UnitStart",
        "2": "HPBelowPercent",
        "3": "Win",
        "4": "TurnStart",
        "5": "PostMapLoad",
        "6": "UnitTurnStart",
        "7": "UnitAppear",
        "8": "UnitDead",
        "9": "StandbyGrid",
        "10": "RestHP",
        "11": "UseSkill",
        "12": "UnitWithdraw",
        "13": "Lose",
        "14": "RecvSkillElem",
        "15": "RecvSkillCond"
    },
    "State": {
        "0": "Wait",
        "1": "Dragging",
        "2": "DragEnd",
        "3": "Scrolling"
    },
    "StateTransitionTypes": {
        "0": "Forward",
        "1": "Back"
    },
    "StateTypes": {
        "0": "FadeIn",
        "1": "Active",
        "2": "FadeOut",
        "3": "Inactive",
        "4": "None"
    },
    "StatusTypes": {
        "0": "Hp",
        "1": "Mp",
        "2": "MpIni",
        "3": "Atk",
        "4": "Def",
        "5": "Mag",
        "6": "Mnd",
        "7": "Rec",
        "8": "Dex",
        "9": "Spd",
        "10": "Cri",
        "11": "Luk",
        "12": "Mov",
        "13": "Jmp"
    },
    "StealTypes": {
        "0": "None",
        "1": "Item",
        "2": "Gold",
        "3": "Jewel"
    },
    "SubQuestTypes": {
        "0": "Normal",
        "1": "Limited",
        "2": "Special",
        "3": "Seiseki",
        "4": "Babel"
    },
    "SyncType": {
        "0": "Override",
        "1": "Multi"
    },
    "TOWER_CLEAR_FLAG": {
        "0": "NOT_CLEAR",
        "1": "CLEAR",
        "2": "CLEAR_AND_SCORE"
    },
    "TOWER_RANK": {
        "0": "S",
        "1": "A_PLUS",
        "2": "A",
        "3": "A_MINUS",
        "4": "B_PLUS",
        "5": "B",
        "6": "B_MINUS",
        "7": "C_PLUS",
        "8": "C",
        "9": "C_MINUS",
        "10": "D_PLUS",
        "11": "D",
        "12": "D_MINUS",
        "13": "E_PLUS",
        "14": "E",
        "15": "E_MINUS",
        "16": "NUM"
    },
    "TOWER_SCORE_TYPE": {
        "0": "TURN",
        "1": "DIED",
        "2": "RETIRE",
        "3": "RECOVER",
        "4": "NUM"
    },
    "Tab": {
        "0": "NONE",
        "1": "FAVORITE",
        "2": "FIRE",
        "4": "WATER",
        "8": "THUNDER",
        "16": "WIND",
        "32": "LIGHT",
        "64": "DARK",
        "128": "MAINSUPPORT",
        "65535": "ALL"
    },
    "TabType": {
        "0": "NotPeriod",
        "1": "Period",
        "2": "Read"
    },
    "Tags": {
        "1": "MAL",
        "2": "FEM",
        "4": "HERO"
    },
    "TargetActionTypes": {
        "0": "None",
        "1": "Attack",
        "2": "Skill",
        "3": "Heal"
    },
    "TargetType": {
        "0": "Player",
        "1": "Enemy"
    },
    "TemporaryFlags": {
        "1": "TemporaryUnitData",
        "2": "AllowJobChange"
    },
    "TextPositionTypes": {
        "0": "Left",
        "1": "Center",
        "2": "Right"
    },
    "TextSpeedTypes": {
        "0": "Normal",
        "1": "Slow",
        "2": "Fast"
    },
    "TimeScaleGroups": {
        "0": "Game",
        "1": "HitStop",
        "2": "Debug",
        "3": "BattleSpeed",
        "4": "BattleDebug",
        "5": "MAX"
    },
    "ToggleMasks": {
        "1": "Interactable",
        "2": "Enable",
        "4": "BlockRaycast"
    },
    "ToggleTypes": {
        "0": "Hide",
        "1": "Show",
        "2": "Summon"
    },
    "TouchState": {
        "-1": "None",
        "0": "Began",
        "1": "Moved",
        "2": "Stationary",
        "3": "Ended",
        "4": "Canceled"
    },
    "TrajectoryTypes": {
        "0": "Straight",
        "1": "Arrow"
    },
    "TriBool": {
        "0": "Unchanged",
        "1": "False",
        "2": "True"
    },
    "TriggerConditions": {
        "0": "None",
        "1": "FirstTry",
        "2": "FirstWin",
        "3": "FirstLose",
        "4": "Win",
        "5": "Lose"
    },
    "TriggerTypes": {
        "0": "None",
        "10": "UnitStart",
        "11": "UnitSkillStart",
        "12": "UnitMoveStart",
        "13": "UnitSkillEnd",
        "14": "UnitEnd",
        "15": "TargetChange",
        "16": "HotTargetsChange",
        "17": "UnitSelectDirection",
        "18": "MapStart",
        "19": "FinishCameraUnitFocus",
        "20": "CloseBattleInfo",
        "21": "MapEnd",
        "100": "SkipBattleExplain"
    },
    "TrophyCategorys": {
        "0": "None",
        "1": "Story",
        "2": "Event",
        "3": "Multi",
        "4": "Training",
        "5": "Campaign",
        "6": "Other"
    },
    "TrophyConditionTypes": {
        "0": "none",
        "1": "winquest",
        "2": "killenemy",
        "3": "getitem",
        "4": "playerlv",
        "5": "winelite",
        "6": "winevent",
        "7": "gacha",
        "8": "multiplay",
        "9": "ability",
        "10": "soubi",
        "11": "buygold",
        "12": "vip",
        "13": "stamina",
        "14": "card",
        "15": "arena",
        "16": "winarena",
        "17": "review",
        "18": "followtwitter",
        "19": "fggid",
        "20": "unitlevel",
        "21": "evolutionnum",
        "22": "joblevel",
        "23": "logincount",
        "24": "upunitlevel",
        "25": "makeunitlevel",
        "26": "unitequip",
        "27": "upjoblevel",
        "28": "makejoblevel",
        "29": "limitbreak",
        "30": "evoltiontimes",
        "31": "changejob",
        "32": "changeability",
        "33": "makeabilitylevel",
        "34": "winquestsoldier",
        "35": "winmulti",
        "36": "buyatshop",
        "37": "artifacttransmute",
        "38": "artifactstrength",
        "39": "artifactevolution",
        "40": "winmultimore",
        "41": "winmultiless",
        "42": "collectunits",
        "43": "totaljoblv11",
        "44": "totalunitlvs",
        "45": "childrencomp",
        "46": "wintower",
        "47": "losequest",
        "48": "loseelite",
        "49": "loseevent",
        "50": "losetower",
        "51": "losearena",
        "52": "dailyall",
        "53": "vs",
        "54": "vswin",
        "55": "vslose",
        "56": "upartifactlevel",
        "57": "makeartifactlevel",
        "58": "becomearenarank",
        "59": "overarenarank",
        "60": "tower",
        "61": "overtowerscore",
        "62": "overvsrankfloor",
        "63": "exclear_fire",
        "64": "exclear_water",
        "65": "exclear_wind",
        "66": "exclear_thunder",
        "67": "exclear_light",
        "68": "exclear_dark",
        "69": "exclear_fire_nocon",
        "70": "exclear_water_nocon",
        "71": "exclear_wind_nocon",
        "72": "exclear_thunder_nocon",
        "73": "exclear_light_nocon",
        "74": "exclear_dark_nocon",
        "75": "winstory_extra",
        "76": "multitower_help",
        "77": "multitower",
        "78": "damage_over",
        "79": "complete_all_quest_mission",
        "80": "has_gold_over",
        "81": "read_tips",
        "82": "read_tips_count",
        "83": "up_conceptcard_level",
        "84": "up_conceptcard_level_target",
        "85": "limitbreak_conceptcard",
        "86": "limitbreak_conceptcard_target",
        "87": "up_conceptcard_trust",
        "88": "up_conceptcard_trust_target",
        "89": "max_conceptcard_trust",
        "90": "unlock_tobira_total",
        "91": "unlock_tobira_unit",
        "92": "envy_unlock_unit",
        "93": "sloth_unlock_unit",
        "94": "lust_unlock_unit",
        "95": "greed_unlock_unit",
        "96": "wrath_unlock_unit",
        "97": "gluttonny_unlock_unit",
        "98": "pride_unlock_unit",
        "99": "send_present",
        "100": "complete_all_quest_mission_total",
        "101": "complete_all_mission_count",
        "102": "complete_story_mission_count",
        "103": "complete_event_mission_count",
        "104": "complete_ordeal_mission_count",
        "105": "clear_ordeal",
        "106": "view_news",
        "107": "makeunitandjoblevel"
    },
    "TrophyDispType": {
        "0": "None",
        "1": "Hide",
        "2": "Award",
        "3": "HideChallenge"
    },
    "TrophyTypes": {
        "0": "Normal",
        "1": "Daily",
        "2": "All"
    },
    "TutorialFlags": {
        "1": "GamePlay",
        "2": "Magic",
        "4": "Attack_1",
        "8": "Updown",
        "16": "Evolution",
        "32": "Equip",
        "64": "UnitShard",
        "128": "Ability",
        "256": "Attack_2",
        "512": "Move",
        "1024": "Organize",
        "2048": "AutoBattle",
        "4096": "Mission",
        "8192": "ConceptCard_1",
        "16384": "ConceptCard_2",
        "32768": "ConceptCard_3",
        "65536": "Tobira_1",
        "131072": "Tobira_2"
    },
    "Type": {
        "0": "QuestParam_cond",
        "1": "QuestParam_world",
        "2": "QuestParam_area",
        "3": "QuestParam_units",
        "4": "QuestParam_ticket",
        "5": "ChapterParam_world",
        "6": "ChapterParam_section",
        "7": "MapParam_battleSceneName",
        "8": "MapParam_bgmName",
        "9": "MAX_TYPE"
    },
    "URL_Mode": {
        "0": "APIHost",
        "1": "SiteHost",
        "2": "NewsHost"
    },
    "UnitBadgeTypes": {
        "1": "EnableEquipment",
        "2": "EnableAwaking",
        "4": "EnableRarityUp",
        "8": "EnableJobRankUp",
        "16": "EnableClassChange"
    },
    "UnitEntryTypes": {
        "0": "None",
        "1": "DecrementMember",
        "2": "DecrementHp",
        "3": "DeadEnemy",
        "4": "UsedSkill",
        "5": "OnGridEnemy",
        "6": "TransformUnit",
        "7": "WithdrawEnemy",
        "8": "DecrementUnit"
    },
    "UnlockTargets": {
        "1": "Shop",
        "2": "Cave",
        "4": "Tour",
        "8": "Tower",
        "16": "Arena",
        "32": "ShopTabi",
        "64": "ShopKimagure",
        "128": "ShopMonozuki",
        "256": "MultiPlay",
        "512": "UnitAwaking",
        "1024": "UnitEvolution",
        "2048": "EnhanceEquip",
        "4096": "EnhanceAbility",
        "8192": "Artifact",
        "16384": "ShopAwakePiece",
        "32768": "LimitedShop",
        "65536": "MultiVS",
        "131072": "Ordeal",
        "262144": "Gallery",
        "524288": "ConceptCard",
        "1048576": "KeyQuest",
        "2097152": "EventShop",
        "4194304": "TowerQuest",
        "8388608": "RankMatch",
        "16777216": "Guild",
        "33554432": "Archive",
        "67108864": "Raid"
    },
    "VERSUS_ITEM_TYPE": {
        "0": "item",
        "1": "gold",
        "2": "coin",
        "3": "unit",
        "4": "artifact",
        "5": "award"
    },
    "VERSUS_REWARD_TYPE": {
        "0": "Item",
        "1": "Gold",
        "2": "Coin",
        "3": "Artifact",
        "4": "Unit"
    },
    "VERSUS_TYPE": {
        "0": "Free",
        "1": "Tower",
        "2": "Friend",
        "3": "RankMatch",
        "4": "NUM"
    },
    "VS_MODE": {
        "0": "THREE_ON_THREE",
        "1": "FIVE_ON_FIVE"
    },
    "VariableType": {
        "0": "None",
        "1": "IsEventQuest",
        "2": "Hide",
        "3": "Show"
    },
    "VersusDraftMessageDataHeader": {
        "0": "NOP",
        "1": "CURSOR",
        "2": "DECIDE",
        "3": "FINISH_TURN",
        "4": "COMPLETE",
        "5": "NUM"
    },
    "VersusDraftType": {
        "0": "Normal",
        "1": "Draft",
        "2": "DraftFriend",
        "3": "DraftFriendOnly"
    },
    "ViewInfoType": {
        "0": "Quest",
        "1": "Arena",
        "2": "TowerMatch",
        "3": "Num"
    },
    "ViewMode": {
        "0": "UNITLIST",
        "1": "SELECTLIST",
        "2": "TOWERSELECTLIST",
        "3": "PIECELIST"
    },
    "VisibleFlags": {
        "1": "Empty",
        "2": "NonEmpty",
        "4": "Locked"
    },
    "VisibleType": {
        "0": "Visible",
        "1": "Invisible"
    },
    "WeaponFormulaTypes": {
        "0": "None",
        "1": "Atk",
        "2": "Mag",
        "3": "AtkSpd",
        "4": "MagSpd",
        "5": "AtkDex",
        "6": "MagDex",
        "7": "AtkLuk",
        "8": "MagLuk",
        "9": "AtkMag",
        "10": "SpAtk",
        "11": "SpMag",
        "12": "AtkSpdDex",
        "13": "MagSpdDex",
        "14": "AtkDexLuk",
        "15": "MagDexLuk",
        "16": "Luk",
        "17": "Dex",
        "18": "Spd",
        "19": "Cri",
        "20": "Def",
        "21": "Mnd",
        "22": "AtkRndLuk",
        "23": "MagRndLuk",
        "24": "AtkEAt",
        "25": "MagEMg",
        "26": "AtkDefEDf",
        "27": "MagMndEMd",
        "28": "LukELk",
        "29": "MHp",
        "30": "EAt",
        "31": "EMg",
        "32": "EDx",
        "33": "ESp2"
    },
    "eAIActionNextTurnAct": {
        "0": "NONE",
        "1": "NEXT_ACTION",
        "2": "THIS_ACTION",
        "3": "SPECIFIED_ACTION"
    },
    "eAIActionNoExecAct": {
        "0": "NONE",
        "1": "AI",
        "2": "USE_PROB_AND_AI",
        "3": "CHECK_NEXT"
    },
    "eAbsorbAndGive": {
        "0": "None",
        "1": "Absorb",
        "2": "Give",
        "3": "GiveDiv",
        "4": "Same",
        "5": "SameDiv"
    },
    "eActionType": {
        "0": "MOVE_UNIT",
        "1": "ATTACK_TARGET_DESC",
        "2": "NORMAL_ATTACK_DESC",
        "3": "ABILITY_DESC",
        "4": "TAP_NORMAL_ATTACK",
        "5": "EXEC_NORMAL_ATTACK",
        "6": "SELECT_DIR"
    },
    "eAllType": {
        "7": "MIN",
        "8": "AVOID",
        "9": "RECOVER",
        "10": "CRI_DMG",
        "11": "MAX"
    },
    "eArenaCalcType": {
        "0": "UNKNOWN",
        "1": "MAP_START",
        "2": "UNIT_START",
        "3": "AI",
        "4": "UNIT_END",
        "5": "CAST_SKILL_START",
        "6": "CAST_SKILL_END",
        "7": "MAP_END"
    },
    "eAuthStatus": {
        "0": "None",
        "1": "Disable",
        "2": "NotSynchronized",
        "3": "Synchronized"
    },
    "eBitType": {
        "0": "NONE",
        "1": "EDIT_GUILD_NAME",
        "2": "SELECT_EMBLEM",
        "3": "EDIT_BOARD",
        "4": "EDIT_ENTRY_CONDITIONS",
        "5": "ENTRY_INVITE",
        "6": "EDIT_INVITE_MESSAGE",
        "7": "CHANGE_ROLE",
        "8": "RECOMMEND_LIST",
        "9": "CONFRIM_USE_COIN",
        "10": "MAX"
    },
    "eBudFluct": {
        "0": "NONE",
        "1": "DW_L",
        "2": "DW_M",
        "3": "DW_S",
        "4": "UP_S",
        "5": "UP_M",
        "6": "UP_L"
    },
    "eBudStat": {
        "0": "MHP",
        "1": "MMP",
        "2": "ATK",
        "3": "DEF",
        "4": "MAG",
        "5": "MND",
        "6": "DEX",
        "7": "SPD",
        "8": "CRI",
        "9": "LUK",
        "10": "CMB",
        "11": "MOV",
        "12": "JMP",
        "13": "MAX"
    },
    "eCardType": {
        "0": "None",
        "1": "Equipment",
        "2": "Enhance_exp",
        "3": "Enhance_trust"
    },
    "eChatMessageType": {
        "0": "UNKNOWN",
        "1": "MESSAGE",
        "2": "STAMP",
        "3": "SYSTEM",
        "4": "GUILD_INVITE"
    },
    "eChatType": {
        "0": "None",
        "1": "World",
        "2": "Room",
        "3": "Guild"
    },
    "eCoinBuyUseBonusRewardType": {
        "0": "None",
        "1": "Item",
        "2": "Gold",
        "3": "Coin",
        "4": "Artifact",
        "5": "Unit",
        "6": "ConceptCard",
        "7": "Award"
    },
    "eCoinBuyUseBonusTrigger": {
        "0": "None",
        "1": "Buy",
        "2": "Use",
        "3": "Max"
    },
    "eCoinBuyUseBonusType": {
        "0": "None",
        "1": "Daily",
        "2": "Period",
        "3": "Max"
    },
    "eCommand": {
        "0": "NONE",
        "1": "EDIT_GUILD_NAME",
        "2": "SELECT_EMBLEM",
        "3": "EDIT_BOARD",
        "4": "EDIT_ENTRY_CONDITIONS",
        "5": "ENTRY_INVITE",
        "6": "RECOMMEND_LIST",
        "7": "EDIT_INVITE_MESSAGE",
        "8": "SELECT_EMBLEM_NOREQUEST",
        "9": "CHANGE_ROLE"
    },
    "eComponentId": {
        "0": "MOVE_UNIT",
        "1": "ATTACK_TARGET_DESC",
        "2": "NORMAL_ATTACK_DESC",
        "3": "ABILITY_DESC",
        "4": "TAP_NORMAL_ATTACK",
        "5": "EXEC_NORMAL_ATTACK",
        "6": "SELECT_DIR",
        "7": "CLOSE_BATTLE_INFO"
    },
    "eConfirmType": {
        "0": "NONE",
        "1": "ENTRY_REQUEST",
        "2": "ENTRY_REQUEST_APPROVAL_OK",
        "3": "ENTRY_REQUEST_APPROVAL_NG",
        "4": "MEMBER_KICK",
        "5": "LEAVE",
        "6": "ENTRY_REQUEST_NG_ALL"
    },
    "eDamageDispType": {
        "0": "Standard",
        "1": "Billion",
        "2": "Trillion"
    },
    "eDataType": {
        "0": "GlobalVars_SelectedChapter",
        "1": "GlobalVars_SelectedArchiveID",
        "2": "GlobalVars_SelectedQuestID"
    },
    "eDispType": {
        "0": "LEFT",
        "1": "RIGHT",
        "2": "UP"
    },
    "eFacilityType": {
        "0": "NONE",
        "1": "BASE_CAMP"
    },
    "eFluctChk": {
        "0": "DEFAULT",
        "1": "ELEMENT",
        "2": "ATK_DETAIL"
    },
    "eGimmickEventType": {
        "0": "USE_SKILL",
        "1": "UNIT_KILL"
    },
    "eInspSkillTriggerType": {
        "0": "UNIT",
        "1": "UNIT_ELEMENT",
        "2": "UNIT_TYPE",
        "3": "UNIT_JOB",
        "4": "UNIT_BIRTH",
        "5": "USE_SKILL",
        "6": "TARGET_UNIT",
        "7": "TARGET_UNIT_ELEMENT",
        "8": "TARGET_UNIT_TYPE",
        "9": "TARGET_UNIT_JOB",
        "10": "TARGET_UNIT_BIRTH",
        "11": "UNIT_LEVEL",
        "12": "TARGET_UNIT_LEVEL"
    },
    "eKnockBackDir": {
        "0": "Back",
        "1": "Forward",
        "2": "Left",
        "3": "Right"
    },
    "eKnockBackDs": {
        "0": "Target",
        "1": "Self",
        "2": "Grid"
    },
    "eMapBreakAIType": {
        "0": "NONE",
        "1": "ALL",
        "2": "PALL",
        "3": "EALL"
    },
    "eMapBreakClashType": {
        "0": "ALL",
        "1": "PALL",
        "2": "EALL",
        "3": "INVINCIBLE"
    },
    "eMapBreakRayType": {
        "0": "PASS",
        "1": "TERRAIN"
    },
    "eMapBreakSideType": {
        "0": "UNKNOWN",
        "1": "PLAYER",
        "2": "ENEMY"
    },
    "eMapUnitCtCalcType": {
        "0": "FIXED",
        "1": "SCALE"
    },
    "eMaskBattleUI": {
        "1": "MENU",
        "2": "MAP",
        "4": "CAMERA",
        "8": "CMD_ATTACK",
        "16": "CMD_ABILITYS",
        "32": "CMD_ITEM",
        "64": "CMD_END",
        "128": "VS_GRID_TAP",
        "256": "VS_SWIPE",
        "512": "BACK_KEY"
    },
    "eNotifyType": {
        "0": "None",
        "1": "Warning",
        "2": "Expired"
    },
    "eQuestState": {
        "0": "INVALID",
        "1": "LOCK",
        "2": "PLAYABLE",
        "3": "CLEARED"
    },
    "eRewardShowType": {
        "0": "TopOnly",
        "1": "All"
    },
    "eRewardType": {
        "0": "None",
        "1": "Item",
        "2": "Artifact",
        "3": "Coin",
        "4": "Gold",
        "5": "ConceptCard"
    },
    "eRole": {
        "0": "NONE",
        "1": "MASTAER",
        "2": "MEMBER",
        "3": "SUB_MASTAER"
    },
    "eSkillTargetEx": {
        "0": "None",
        "1": "JumpInc",
        "2": "JumpOnly"
    },
    "eState": {
        "0": "OPEN",
        "1": "OPENED",
        "2": "CLOSE",
        "3": "CLOSE_IMMEDIATE",
        "4": "CLOSED"
    },
    "eTargetType": {
        "0": "MAIN_CAMERA",
        "1": "SELECTED"
    },
    "eTargetTypeForLaser": {
        "0": "Default",
        "1": "StepFront",
        "2": "FrontCenter"
    },
    "eTeleportSkillPos": {
        "0": "None",
        "1": "Back",
        "2": "Forward",
        "3": "Left",
        "4": "Right"
    },
    "eTeleportType": {
        "0": "None",
        "1": "Only",
        "2": "BeforeSkill",
        "3": "AfterSkill"
    },
    "eTrickActionTiming": {
        "0": "UNKNOWN",
        "1": "TURN_START",
        "2": "TURN_END"
    },
    "eTrickDamageType": {
        "0": "NONE",
        "1": "DAMAGE",
        "2": "HEAL"
    },
    "eTrickSetType": {
        "0": "GridNoUnit",
        "1": "GridAll"
    },
    "eTrickVisualType": {
        "0": "NONE",
        "1": "PLAYER",
        "2": "ALL"
    },
    "eType": {
        "0": "UNKNOWN",
        "1": "ELEM",
        "2": "COND"
    },
    "eTypeMhmDamage": {
        "0": "HP",
        "1": "MP"
    },
    "eViewMode": {
        "0": "NONE",
        "1": "UNIT_DETAIL",
        "2": "UNIT_VIEWER"
    },
    "eViewType": {
        "0": "CARD_SKILL",
        "1": "ABILITY"
    },
    "type": {
        "0": "item",
        "1": "unit",
        "2": "artifact",
        "3": "conceptcard"
    }
}